{
 "user_badges": [
  {
   "id": 16989,
   "granted_at": "2017-05-16T11:43:30.533Z",
   "count": 1,
   "badge_id": 2,
   "user_id": 296,
   "granted_by_id": -1
  },
  {
   "id": 824,
   "granted_at": "2016-01-13T14:39:28.662Z",
   "count": 1,
   "badge_id": 101,
   "user_id": 296,
   "granted_by_id": -1
  },
  {
   "id": 16346,
   "granted_at": "2017-05-05T01:37:05.175Z",
   "count": 1,
   "badge_id": 24,
   "user_id": 296,
   "granted_by_id": -1
  }
 ],
 "badges": [
  {
   "id": 2,
   "name": "Member",
   "description": "<a href=\"https://meta.discourse.org/t/what-do-user-trust-levels-do/4924/5\">Granted</a> invitations, group messaging, more likes",
   "grant_count": 711,
   "allow_title": false,
   "multiple_grant": false,
   "icon": "fa-user",
   "image": null,
   "listable": true,
   "enabled": true,
   "badge_grouping_id": 4,
   "system": true,
   "slug": "member",
   "badge_type_id": 3
  },
  {
   "id": 101,
   "name": "Mondo Alpha",
   "description": "",
   "grant_count": 1041,
   "allow_title": true,
   "multiple_grant": false,
   "icon": "fa-trophy",
   "image": "fa-trophy",
   "listable": true,
   "enabled": true,
   "badge_grouping_id": 5,
   "system": false,
   "slug": "mondo-alpha",
   "badge_type_id": 1
  },
  {
   "id": 24,
   "name": "Anniversary",
   "description": "Active member for a year, posted at least once",
   "grant_count": 1305,
   "allow_title": false,
   "multiple_grant": true,
   "icon": "fa-clock-o",
   "image": null,
   "listable": true,
   "enabled": true,
   "badge_grouping_id": 2,
   "system": true,
   "slug": "anniversary",
   "badge_type_id": 2
  }
 ],
 "badge_types": [
  {
   "id": 3,
   "name": "Bronze",
   "sort_order": 7
  },
  {
   "id": 1,
   "name": "Gold",
   "sort_order": 9
  },
  {
   "id": 2,
   "name": "Silver",
   "sort_order": 8
  }
 ],
 "users": [
  {
   "id": 296,
   "username": "afonso",
   "avatar_template": "/user_avatar/community.monzo.com/afonso/{size}/227_1.png",
   "name": "afonso",
   "moderator": false,
   "admin": false
  },
  {
   "id": -1,
   "username": "system",
   "avatar_template": "/user_avatar/community.monzo.com/system/{size}/1_1.png",
   "name": "system",
   "moderator": true,
   "admin": true
  }
 ],
 "user": {
  "id": 296,
  "username": "afonso",
  "avatar_template": "/user_avatar/community.monzo.com/afonso/{size}/227_1.png",
  "name": "afonso",
  "last_posted_at": "2017-09-26T12:22:53.719Z",
  "last_seen_at": "2017-09-26T17:52:05.498Z",
  "created_at": "2016-01-13T14:39:28.632Z",
  "can_edit": false,
  "can_edit_username": false,
  "can_edit_email": false,
  "can_edit_name": false,
  "can_send_private_messages": false,
  "can_send_private_message_to_user": false,
  "trust_level": 2,
  "moderator": false,
  "admin": false,
  "title": "Mondo Alpha",
  "uploaded_avatar_id": 227,
  "badge_count": 13,
  "custom_fields": null,
  "pending_count": 0,
  "profile_view_count": 47,
  "primary_group_name": null,
  "primary_group_flair_url": null,
  "primary_group_flair_bg_color": null,
  "primary_group_flair_color": null,
  "invited_by": {
   "id": 2,
   "username": "tristan",
   "avatar_template": "/user_avatar/community.monzo.com/tristan/{size}/273_1.png"
  },
  "groups": [
   {
    "id": 10,
    "automatic": true,
    "name": "trust_level_0",
    "display_name": "trust_level_0",
    "user_count": 23117,
    "mentionable_level": 0,
    "messageable_level": 0,
    "visibility_level": 0,
    "automatic_membership_email_domains": null,
    "automatic_membership_retroactive": false,
    "primary_group": false,
    "title": null,
    "grant_trust_level": null,
    "has_messages": false,
    "flair_url": null,
    "flair_bg_color": null,
    "flair_color": null,
    "bio_raw": null,
    "bio_cooked": null,
    "public_admission": false,
    "public_exit": false,
    "allow_membership_requests": false,
    "full_name": null,
    "default_notification_level": 3,
    "membership_request_template": null
   },
   {
    "id": 11,
    "automatic": true,
    "name": "trust_level_1",
    "display_name": "trust_level_1",
    "user_count": 6609,
    "mentionable_level": 0,
    "messageable_level": 0,
    "visibility_level": 0,
    "automatic_membership_email_domains": null,
    "automatic_membership_retroactive": false,
    "primary_group": false,
    "title": null,
    "grant_trust_level": null,
    "has_messages": false,
    "flair_url": null,
    "flair_bg_color": null,
    "flair_color": null,
    "bio_raw": null,
    "bio_cooked": null,
    "public_admission": false,
    "public_exit": false,
    "allow_membership_requests": false,
    "full_name": null,
    "default_notification_level": 3,
    "membership_request_template": null
   },
   {
    "id": 12,
    "automatic": true,
    "name": "trust_level_2",
    "display_name": "trust_level_2",
    "user_count": 712,
    "mentionable_level": 0,
    "messageable_level": 0,
    "visibility_level": 0,
    "automatic_membership_email_domains": null,
    "automatic_membership_retroactive": false,
    "primary_group": false,
    "title": null,
    "grant_trust_level": null,
    "has_messages": false,
    "flair_url": null,
    "flair_bg_color": null,
    "flair_color": null,
    "bio_raw": null,
    "bio_cooked": null,
    "public_admission": false,
    "public_exit": false,
    "allow_membership_requests": false,
    "full_name": null,
    "default_notification_level": 3,
    "membership_request_template": null
   },
   {
    "id": 43,
    "automatic": false,
    "name": "Alphas",
    "user_count": 1041,
    "mentionable_level": 0,
    "messageable_level": 0,
    "visibility_level": 0,
    "automatic_membership_email_domains": "",
    "automatic_membership_retroactive": false,
    "primary_group": false,
    "title": "Mondo Alpha",
    "grant_trust_level": null,
    "has_messages": false,
    "flair_url": null,
    "flair_bg_color": null,
    "flair_color": null,
    "bio_raw": null,
    "bio_cooked": null,
    "public_admission": false,
    "public_exit": false,
    "allow_membership_requests": false,
    "full_name": null,
    "default_notification_level": 3,
    "membership_request_template": null
   }
  ],
  "group_users": [
   {
    "group_id": 10,
    "user_id": 296,
    "notification_level": 2
   },
   {
    "group_id": 11,
    "user_id": 296,
    "notification_level": 2
   },
   {
    "group_id": 12,
    "user_id": 296,
    "notification_level": 3
   },
   {
    "group_id": 43,
    "user_id": 296,
    "notification_level": 2
   }
  ],
  "featured_user_badge_ids": [
   16989,
   824,
   16346
  ],
  "card_badge": null
 },
 "summary": {
  "topics": [
   {
    "id": 9065,
    "created_at": "2017-05-16T10:37:21.970Z",
    "fancy_title": "200,000 Customers and £250,000,000 Spent!",
    "slug": "200-000-customers-and-250-000-000-spent",
    "like_count": 25
   },
   {
    "id": 16194,
    "created_at": "2017-08-24T12:04:15.397Z",
    "fancy_title": "Announcing the Overdrafts Preview!",
    "slug": "announcing-the-overdrafts-preview",
    "like_count": 535
   },
   {
    "id": 9345,
    "created_at": "2017-05-22T12:49:23.824Z",
    "fancy_title": "Starling Feedback",
    "slug": "starling-feedback",
    "like_count": 881
   },
   {
    "id": 10047,
    "created_at": "2017-06-04T21:29:24.967Z",
    "fancy_title": "iOS 11 Betas",
    "slug": "ios-11-betas",
    "like_count": 50
   },
   {
    "id": 5861,
    "created_at": "2016-09-07T18:03:52.837Z",
    "fancy_title": "Competitor update",
    "slug": "competitor-update",
    "like_count": 1390
   },
   {
    "id": 11269,
    "title": "Pots",
    "fancy_title": "Pots",
    "slug": "pots",
    "posts_count": 144
   }
  ],
  "badges": [
   {
    "id": 2,
    "name": "Member",
    "description": "<a href=\"https://meta.discourse.org/t/what-do-user-trust-levels-do/4924/5\">Granted</a> invitations, group messaging, more likes",
    "grant_count": 711,
    "allow_title": false,
    "multiple_grant": false,
    "icon": "fa-user",
    "image": null,
    "listable": true,
    "enabled": true,
    "badge_grouping_id": 4,
    "system": true,
    "slug": "member",
    "badge_type_id": 3
   },
   {
    "id": 101,
    "name": "Mondo Alpha",
    "description": "",
    "grant_count": 1041,
    "allow_title": true,
    "multiple_grant": false,
    "icon": "fa-trophy",
    "image": "fa-trophy",
    "listable": true,
    "enabled": true,
    "badge_grouping_id": 5,
    "system": false,
    "slug": "mondo-alpha",
    "badge_type_id": 1
   },
   {
    "id": 24,
    "name": "Anniversary",
    "description": "Active member for a year, posted at least once",
    "grant_count": 1305,
    "allow_title": false,
    "multiple_grant": true,
    "icon": "fa-clock-o",
    "image": null,
    "listable": true,
    "enabled": true,
    "badge_grouping_id": 2,
    "system": true,
    "slug": "anniversary",
    "badge_type_id": 2
   },
   {
    "id": 15,
    "name": "First Quote",
    "description": "Quoted a post",
    "grant_count": 373,
    "allow_title": false,
    "multiple_grant": false,
    "icon": "fa-certificate",
    "image": null,
    "listable": true,
    "enabled": true,
    "badge_grouping_id": 1,
    "system": true,
    "slug": "first-quote",
    "badge_type_id": 3
   },
   {
    "id": 42,
    "name": "First Onebox",
    "description": "Posted a link that was oneboxed",
    "grant_count": 451,
    "allow_title": false,
    "multiple_grant": false,
    "icon": "fa-certificate",
    "image": null,
    "listable": true,
    "enabled": true,
    "badge_grouping_id": 1,
    "system": true,
    "slug": "first-onebox",
    "badge_type_id": 3
   },
   {
    "id": 17,
    "name": "Reader",
    "description": "Read every reply in a topic with more than 100 replies",
    "grant_count": 464,
    "allow_title": false,
    "multiple_grant": false,
    "icon": "fa-certificate",
    "image": null,
    "listable": true,
    "enabled": true,
    "badge_grouping_id": 1,
    "system": true,
    "slug": "reader",
    "badge_type_id": 3
   }
  ],
  "badge_types": [
   {
    "id": 3,
    "name": "Bronze",
    "sort_order": 7
   },
   {
    "id": 1,
    "name": "Gold",
    "sort_order": 9
   },
   {
    "id": 2,
    "name": "Silver",
    "sort_order": 8
   }
  ],
  "users": [
   {
    "id": 296,
    "username": "afonso",
    "avatar_template": "/user_avatar/community.monzo.com/afonso/{size}/227_1.png",
    "name": "afonso",
    "moderator": false,
    "admin": false
   },
   {
    "id": -1,
    "username": "system",
    "avatar_template": "/user_avatar/community.monzo.com/system/{size}/1_1.png",
    "name": "system",
    "moderator": true,
    "admin": true
   }
  ],
  "user_summary": {
   "likes_given": 15,
   "likes_received": 20,
   "posts_read_count": 6836,
   "days_visited": 157,
   "topic_count": 0,
   "post_count": 26,
   "time_read": "19h",
   "solved_count": 0,
   "topic_ids": [],
   "replies": [
    {
     "post_number": 3,
     "like_count": 3,
     "created_at": "2017-05-16T12:23:47.174Z",
     "topic_id": 9065
    },
    {
     "post_number": 110,
     "like_count": 3,
     "created_at": "2017-08-26T16:28:43.800Z",
     "topic_id": 16194
    },
    {
     "post_number": 94,
     "like_count": 2,
     "created_at": "2017-05-30T12:24:08.161Z",
     "topic_id": 9345
    },
    {
     "post_number": 8,
     "like_count": 2,
     "created_at": "2017-06-06T10:02:14.969Z",
     "topic_id": 10047
    },
    {
     "post_number": 1038,
     "like_count": 2,
     "created_at": "2017-06-19T20:12:31.590Z",
     "topic_id": 5861
    },
    {
     "post_number": 779,
     "like_count": 1,
     "created_at": "2017-05-04T16:17:59.456Z",
     "topic_id": 5861
    }
   ],
   "links": [
    {
     "url": "http://piggypot.com/features/#save-up-for-anything",
     "title": "PiggyPot - Features, flexible saving targets and free bonuses",
     "clicks": 31,
     "post_number": 779,
     "topic_id": 5861
    }
   ],
   "most_liked_by_users": [
    {
     "id": 3806,
     "username": "alexs",
     "avatar_template": "/user_avatar/community.monzo.com/alexs/{size}/2443_1.png",
     "count": 3,
     "name": "Alex Sherwood"
    },
    {
     "id": 1668,
     "username": "j06",
     "avatar_template": "/user_avatar/community.monzo.com/j06/{size}/11236_1.png",
     "count": 2,
     "name": "Jamie"
    },
    {
     "id": 2576,
     "username": "Bruce",
     "avatar_template": "/user_avatar/community.monzo.com/bruce/{size}/5499_1.png",
     "count": 2,
     "name": "Bruce"
    },
    {
     "id": 884,
     "username": "connorianreilly",
     "avatar_template": "/user_avatar/community.monzo.com/connorianreilly/{size}/652_1.png",
     "count": 1,
     "name": "connorianreilly"
    },
    {
     "id": 1961,
     "username": "MIROW",
     "avatar_template": "/user_avatar/community.monzo.com/mirow/{size}/5941_1.png",
     "count": 1,
     "name": "Richard Müller"
    },
    {
     "id": 9755,
     "username": "AnthonyPhilip",
     "avatar_template": "/user_avatar/community.monzo.com/anthonyphilip/{size}/5284_1.png",
     "count": 1,
     "name": "Anthony Philip"
    }
   ],
   "most_liked_users": [
    {
     "id": 4458,
     "username": "mozzauk",
     "avatar_template": "https://avatars.discourse.org/v2/letter/m/94ad74/{size}.png",
     "count": 2,
     "name": "Andy"
    },
    {
     "id": 1097,
     "username": "ASKendrew",
     "avatar_template": "/user_avatar/community.monzo.com/askendrew/{size}/2987_1.png",
     "count": 1,
     "name": "Adam Kendrew"
    },
    {
     "id": 1668,
     "username": "j06",
     "avatar_template": "/user_avatar/community.monzo.com/j06/{size}/11236_1.png",
     "count": 1,
     "name": "Jamie"
    },
    {
     "id": 1697,
     "username": "DaveTMG",
     "avatar_template": "/user_avatar/community.monzo.com/davetmg/{size}/9650_1.png",
     "count": 1,
     "name": ""
    },
    {
     "id": 4323,
     "username": "simon_tomes",
     "avatar_template": "/user_avatar/community.monzo.com/simon_tomes/{size}/7538_1.png",
     "count": 1,
     "name": "Simon Tomes"
    },
    {
     "id": 7492,
     "username": "Avishai",
     "avatar_template": "/user_avatar/community.monzo.com/avishai/{size}/8735_1.png",
     "count": 1,
     "name": "Marta"
    }
   ],
   "most_replied_to_users": [
    {
     "id": 3079,
     "username": "gwright15",
     "avatar_template": "https://avatars.discourse.org/v2/letter/g/f19dbf/{size}.png",
     "count": 3,
     "name": "Graeme "
    },
    {
     "id": 3806,
     "username": "alexs",
     "avatar_template": "/user_avatar/community.monzo.com/alexs/{size}/2443_1.png",
     "count": 2,
     "name": "Alex Sherwood"
    },
    {
     "id": 1168,
     "username": "Dunsford",
     "avatar_template": "/user_avatar/community.monzo.com/dunsford/{size}/8529_1.png",
     "count": 1,
     "name": "Colin Robinson"
    },
    {
     "id": 1961,
     "username": "MIROW",
     "avatar_template": "/user_avatar/community.monzo.com/mirow/{size}/5941_1.png",
     "count": 1,
     "name": "Richard Müller"
    },
    {
     "id": 3612,
     "username": "RumeeAhmed",
     "avatar_template": "/user_avatar/community.monzo.com/rumeeahmed/{size}/3098_1.png",
     "count": 1,
     "name": "Rumee Ahmed"
    },
    {
     "id": 18727,
     "username": "griff4161",
     "avatar_template": "https://avatars.discourse.org/v2/letter/g/e480ec/{size}.png",
     "count": 1,
     "name": "Scott Griffin"
    }
   ],
   "badges": [
    {
     "id": 16989,
     "granted_at": "2017-05-16T11:43:30.533Z",
     "count": 1,
     "badge_id": 2,
     "user_id": 296,
     "granted_by_id": -1
    },
    {
     "id": 824,
     "granted_at": "2016-01-13T14:39:28.662Z",
     "count": 1,
     "badge_id": 101,
     "user_id": 296,
     "granted_by_id": -1
    },
    {
     "id": 16346,
     "granted_at": "2017-05-05T01:37:05.175Z",
     "count": 1,
     "badge_id": 24,
     "user_id": 296,
     "granted_by_id": -1
    },
    {
     "id": 28032,
     "granted_at": "2017-09-26T10:08:38.407Z",
     "count": 1,
     "post_id": 82113,
     "post_number": 143,
     "badge_id": 15,
     "user_id": 296,
     "granted_by_id": -1,
     "topic_id": 11269
    },
    {
     "id": 16331,
     "granted_at": "2017-05-04T16:17:59.643Z",
     "count": 1,
     "post_id": 36764,
     "post_number": 779,
     "badge_id": 42,
     "user_id": 296,
     "granted_by_id": -1,
     "topic_id": 5861
    },
    {
     "id": 23291,
     "granted_at": "2017-08-26T09:00:28.248Z",
     "count": 1,
     "badge_id": 17,
     "user_id": 296,
     "granted_by_id": -1
    }
   ]
  }
 }
}