{
 "user_badges": [
  {
   "id": 25428,
   "granted_at": "2017-09-13T15:31:43.574Z",
   "count": 1,
   "badge_id": 1,
   "user_id": 18677,
   "granted_by_id": -1
  },
  {
   "id": 25166,
   "granted_at": "2017-09-13T13:20:26.669Z",
   "count": 1,
   "badge_id": 10,
   "user_id": 18677,
   "granted_by_id": -1
  },
  {
   "id": 25213,
   "granted_at": "2017-09-13T13:52:58.413Z",
   "count": 1,
   "post_id": 71678,
   "post_number": 27,
   "badge_id": 5,
   "user_id": 18677,
   "granted_by_id": -1,
   "topic_id": 17171
  }
 ],
 "badges": [
  {
   "id": 1,
   "name": "Basic",
   "description": "<a href=\"https://meta.discourse.org/t/what-do-user-trust-levels-do/4924/4\">Granted</a> all essential community functions",
   "grant_count": 6608,
   "allow_title": false,
   "multiple_grant": false,
   "icon": "fa-user",
   "image": null,
   "listable": true,
   "enabled": true,
   "badge_grouping_id": 4,
   "system": true,
   "slug": "basic",
   "badge_type_id": 3
  },
  {
   "id": 10,
   "name": "Editor",
   "description": "First post edit",
   "grant_count": 1307,
   "allow_title": false,
   "multiple_grant": false,
   "icon": "fa-certificate",
   "image": null,
   "listable": true,
   "enabled": true,
   "badge_grouping_id": 1,
   "system": true,
   "slug": "editor",
   "badge_type_id": 3
  },
  {
   "id": 5,
   "name": "Welcome",
   "description": "Received a like",
   "grant_count": 3576,
   "allow_title": false,
   "multiple_grant": false,
   "icon": "fa-certificate",
   "image": null,
   "listable": true,
   "enabled": true,
   "badge_grouping_id": 2,
   "system": true,
   "slug": "welcome",
   "badge_type_id": 3
  }
 ],
 "badge_types": [
  {
   "id": 3,
   "name": "Bronze",
   "sort_order": 7
  }
 ],
 "users": [
  {
   "id": 18677,
   "username": "ChrisTreen",
   "avatar_template": "https://avatars.discourse.org/v2/letter/c/dc4da7/{size}.png",
   "name": "Chris Treen",
   "moderator": false,
   "admin": false
  },
  {
   "id": -1,
   "username": "system",
   "avatar_template": "/user_avatar/community.monzo.com/system/{size}/1_1.png",
   "name": "system",
   "moderator": true,
   "admin": true
  }
 ],
 "topics": [
  {
   "id": 17171,
   "title": "Monzo's Relaxed Tone on Social Media etc",
   "fancy_title": "Monzo&rsquo;s Relaxed Tone on Social Media etc",
   "slug": "monzos-relaxed-tone-on-social-media-etc",
   "posts_count": 31
  }
 ],
 "user": {
  "id": 18677,
  "username": "ChrisTreen",
  "avatar_template": "https://avatars.discourse.org/v2/letter/c/dc4da7/{size}.png",
  "name": "Chris Treen",
  "last_posted_at": "2017-09-13T15:08:32.432Z",
  "last_seen_at": "2017-09-26T14:31:07.316Z",
  "created_at": "2017-09-13T13:14:03.357Z",
  "can_edit": false,
  "can_edit_username": false,
  "can_edit_email": false,
  "can_edit_name": false,
  "can_send_private_messages": false,
  "can_send_private_message_to_user": false,
  "trust_level": 1,
  "moderator": false,
  "admin": false,
  "title": null,
  "uploaded_avatar_id": null,
  "badge_count": 3,
  "custom_fields": null,
  "pending_count": 0,
  "profile_view_count": 0,
  "primary_group_name": null,
  "primary_group_flair_url": null,
  "primary_group_flair_bg_color": null,
  "primary_group_flair_color": null,
  "invited_by": null,
  "groups": [
   {
    "id": 10,
    "automatic": true,
    "name": "trust_level_0",
    "display_name": "trust_level_0",
    "user_count": 23117,
    "mentionable_level": 0,
    "messageable_level": 0,
    "visibility_level": 0,
    "automatic_membership_email_domains": null,
    "automatic_membership_retroactive": false,
    "primary_group": false,
    "title": null,
    "grant_trust_level": null,
    "has_messages": false,
    "flair_url": null,
    "flair_bg_color": null,
    "flair_color": null,
    "bio_raw": null,
    "bio_cooked": null,
    "public_admission": false,
    "public_exit": false,
    "allow_membership_requests": false,
    "full_name": null,
    "default_notification_level": 3,
    "membership_request_template": null
   },
   {
    "id": 11,
    "automatic": true,
    "name": "trust_level_1",
    "display_name": "trust_level_1",
    "user_count": 6609,
    "mentionable_level": 0,
    "messageable_level": 0,
    "visibility_level": 0,
    "automatic_membership_email_domains": null,
    "automatic_membership_retroactive": false,
    "primary_group": false,
    "title": null,
    "grant_trust_level": null,
    "has_messages": false,
    "flair_url": null,
    "flair_bg_color": null,
    "flair_color": null,
    "bio_raw": null,
    "bio_cooked": null,
    "public_admission": false,
    "public_exit": false,
    "allow_membership_requests": false,
    "full_name": null,
    "default_notification_level": 3,
    "membership_request_template": null
   }
  ],
  "group_users": [
   {
    "group_id": 10,
    "user_id": 18677,
    "notification_level": 3
   },
   {
    "group_id": 11,
    "user_id": 18677,
    "notification_level": 3
   }
  ],
  "featured_user_badge_ids": [
   25428,
   25166,
   25213
  ],
  "card_badge": null
 },
 "summary": {
  "topics": [
   {
    "id": 17171,
    "created_at": "2017-09-08T11:27:55.707Z",
    "fancy_title": "Monzo&rsquo;s Relaxed Tone on Social Media etc",
    "slug": "monzos-relaxed-tone-on-social-media-etc",
    "like_count": 127
   },
   {
    "id": 17518,
    "created_at": "2017-09-13T11:29:54.128Z",
    "fancy_title": "ATM Fees Abroad: Asking the Monzo Community to decide pricing",
    "slug": "atm-fees-abroad-asking-the-monzo-community-to-decide-pricing",
    "like_count": 2956
   }
  ],
  "badges": [
   {
    "id": 1,
    "name": "Basic",
    "description": "<a href=\"https://meta.discourse.org/t/what-do-user-trust-levels-do/4924/4\">Granted</a> all essential community functions",
    "grant_count": 6608,
    "allow_title": false,
    "multiple_grant": false,
    "icon": "fa-user",
    "image": null,
    "listable": true,
    "enabled": true,
    "badge_grouping_id": 4,
    "system": true,
    "slug": "basic",
    "badge_type_id": 3
   },
   {
    "id": 10,
    "name": "Editor",
    "description": "First post edit",
    "grant_count": 1307,
    "allow_title": false,
    "multiple_grant": false,
    "icon": "fa-certificate",
    "image": null,
    "listable": true,
    "enabled": true,
    "badge_grouping_id": 1,
    "system": true,
    "slug": "editor",
    "badge_type_id": 3
   },
   {
    "id": 5,
    "name": "Welcome",
    "description": "Received a like",
    "grant_count": 3576,
    "allow_title": false,
    "multiple_grant": false,
    "icon": "fa-certificate",
    "image": null,
    "listable": true,
    "enabled": true,
    "badge_grouping_id": 2,
    "system": true,
    "slug": "welcome",
    "badge_type_id": 3
   }
  ],
  "badge_types": [
   {
    "id": 3,
    "name": "Bronze",
    "sort_order": 7
   }
  ],
  "users": [
   {
    "id": 18677,
    "username": "ChrisTreen",
    "avatar_template": "https://avatars.discourse.org/v2/letter/c/dc4da7/{size}.png",
    "name": "Chris Treen",
    "moderator": false,
    "admin": false
   },
   {
    "id": -1,
    "username": "system",
    "avatar_template": "/user_avatar/community.monzo.com/system/{size}/1_1.png",
    "name": "system",
    "moderator": true,
    "admin": true
   }
  ],
  "user_summary": {
   "likes_given": 0,
   "likes_received": 7,
   "posts_read_count": 126,
   "days_visited": 4,
   "topic_count": 0,
   "post_count": 2,
   "time_read": "24m",
   "solved_count": 0,
   "topic_ids": [],
   "replies": [
    {
     "post_number": 27,
     "like_count": 5,
     "created_at": "2017-09-13T13:20:26.669Z",
     "topic_id": 17171
    },
    {
     "post_number": 264,
     "like_count": 2,
     "created_at": "2017-09-13T15:08:32.432Z",
     "topic_id": 17518
    }
   ],
   "links": [],
   "most_liked_by_users": [
    {
     "id": 1168,
     "username": "Dunsford",
     "avatar_template": "/user_avatar/community.monzo.com/dunsford/{size}/8529_1.png",
     "count": 1,
     "name": "Colin Robinson"
    },
    {
     "id": 2320,
     "username": "adam.williams",
     "avatar_template": "/user_avatar/community.monzo.com/adam.williams/{size}/9740_1.png",
     "count": 1,
     "name": "Adam Williams"
    },
    {
     "id": 3806,
     "username": "alexs",
     "avatar_template": "/user_avatar/community.monzo.com/alexs/{size}/2443_1.png",
     "count": 1,
     "name": "Alex Sherwood"
    },
    {
     "id": 7492,
     "username": "Avishai",
     "avatar_template": "/user_avatar/community.monzo.com/avishai/{size}/8735_1.png",
     "count": 1,
     "name": "Marta"
    },
    {
     "id": 10913,
     "username": "TheAxelr8r",
     "avatar_template": "/user_avatar/community.monzo.com/theaxelr8r/{size}/6002_1.png",
     "count": 1,
     "name": "Alex Banks"
    },
    {
     "id": 16593,
     "username": "agatto",
     "avatar_template": "/user_avatar/community.monzo.com/agatto/{size}/8737_1.png",
     "count": 1,
     "name": "Adam"
    }
   ],
   "most_liked_users": [],
   "most_replied_to_users": [
    {
     "id": 18309,
     "username": "Maesawelon",
     "avatar_template": "/user_avatar/community.monzo.com/maesawelon/{size}/9944_1.png",
     "count": 1,
     "name": "Chris Nial"
    }
   ],
   "badges": [
    {
     "id": 25428,
     "granted_at": "2017-09-13T15:31:43.574Z",
     "count": 1,
     "badge_id": 1,
     "user_id": 18677,
     "granted_by_id": -1
    },
    {
     "id": 25166,
     "granted_at": "2017-09-13T13:20:26.669Z",
     "count": 1,
     "badge_id": 10,
     "user_id": 18677,
     "granted_by_id": -1
    },
    {
     "id": 25213,
     "granted_at": "2017-09-13T13:52:58.413Z",
     "count": 1,
     "post_id": 71678,
     "post_number": 27,
     "badge_id": 5,
     "user_id": 18677,
     "granted_by_id": -1,
     "topic_id": 17171
    }
   ]
  }
 }
}