{
 "user_badges": [
  {
   "id": 25491,
   "granted_at": "2017-09-13T16:11:37.409Z",
   "count": 1,
   "post_id": 72717,
   "post_number": 362,
   "badge_id": 41,
   "user_id": 19311,
   "granted_by_id": -1,
   "topic_id": 17518
  }
 ],
 "badges": [
  {
   "id": 41,
   "name": "First Emoji",
   "description": "Used an Emoji in a Post",
   "grant_count": 1849,
   "allow_title": false,
   "multiple_grant": false,
   "icon": "fa-certificate",
   "image": null,
   "listable": true,
   "enabled": true,
   "badge_grouping_id": 1,
   "system": true,
   "slug": "first-emoji",
   "badge_type_id": 3
  }
 ],
 "badge_types": [
  {
   "id": 3,
   "name": "Bronze",
   "sort_order": 7
  }
 ],
 "users": [
  {
   "id": 19311,
   "username": "echalcraft",
   "avatar_template": "https://avatars.discourse.org/v2/letter/e/45deac/{size}.png",
   "name": "Emilie Chalcraft",
   "moderator": false,
   "admin": false
  },
  {
   "id": -1,
   "username": "system",
   "avatar_template": "/user_avatar/community.monzo.com/system/{size}/1_1.png",
   "name": "system",
   "moderator": true,
   "admin": true
  }
 ],
 "topics": [
  {
   "id": 17518,
   "title": "ATM Fees Abroad: Asking the Monzo Community to decide pricing",
   "fancy_title": "ATM Fees Abroad: Asking the Monzo Community to decide pricing",
   "slug": "atm-fees-abroad-asking-the-monzo-community-to-decide-pricing",
   "posts_count": 1456
  }
 ],
 "user": {
  "id": 19311,
  "username": "echalcraft",
  "avatar_template": "https://avatars.discourse.org/v2/letter/e/45deac/{size}.png",
  "name": "Emilie Chalcraft",
  "last_posted_at": "2017-09-13T16:11:35.850Z",
  "last_seen_at": "2017-09-13T16:13:38.983Z",
  "created_at": "2017-09-13T15:56:27.008Z",
  "can_edit": false,
  "can_edit_username": false,
  "can_edit_email": false,
  "can_edit_name": false,
  "can_send_private_messages": false,
  "can_send_private_message_to_user": false,
  "trust_level": 0,
  "moderator": false,
  "admin": false,
  "title": null,
  "uploaded_avatar_id": null,
  "badge_count": 1,
  "custom_fields": null,
  "pending_count": 0,
  "profile_view_count": 0,
  "primary_group_name": null,
  "primary_group_flair_url": null,
  "primary_group_flair_bg_color": null,
  "primary_group_flair_color": null,
  "invited_by": null,
  "groups": [
   {
    "id": 10,
    "automatic": true,
    "name": "trust_level_0",
    "display_name": "trust_level_0",
    "user_count": 23117,
    "mentionable_level": 0,
    "messageable_level": 0,
    "visibility_level": 0,
    "automatic_membership_email_domains": null,
    "automatic_membership_retroactive": false,
    "primary_group": false,
    "title": null,
    "grant_trust_level": null,
    "has_messages": false,
    "flair_url": null,
    "flair_bg_color": null,
    "flair_color": null,
    "bio_raw": null,
    "bio_cooked": null,
    "public_admission": false,
    "public_exit": false,
    "allow_membership_requests": false,
    "full_name": null,
    "default_notification_level": 3,
    "membership_request_template": null
   }
  ],
  "group_users": [
   {
    "group_id": 10,
    "user_id": 19311,
    "notification_level": 3
   }
  ],
  "featured_user_badge_ids": [
   25491
  ],
  "card_badge": null
 },
 "summary": {
  "topics": [
   {
    "id": 17518,
    "created_at": "2017-09-13T11:29:54.128Z",
    "fancy_title": "ATM Fees Abroad: Asking the Monzo Community to decide pricing",
    "slug": "atm-fees-abroad-asking-the-monzo-community-to-decide-pricing",
    "like_count": 2956
   }
  ],
  "badges": [
   {
    "id": 41,
    "name": "First Emoji",
    "description": "Used an Emoji in a Post",
    "grant_count": 1849,
    "allow_title": false,
    "multiple_grant": false,
    "icon": "fa-certificate",
    "image": null,
    "listable": true,
    "enabled": true,
    "badge_grouping_id": 1,
    "system": true,
    "slug": "first-emoji",
    "badge_type_id": 3
   }
  ],
  "badge_types": [
   {
    "id": 3,
    "name": "Bronze",
    "sort_order": 7
   }
  ],
  "users": [
   {
    "id": 19311,
    "username": "echalcraft",
    "avatar_template": "https://avatars.discourse.org/v2/letter/e/45deac/{size}.png",
    "name": "Emilie Chalcraft",
    "moderator": false,
    "admin": false
   },
   {
    "id": -1,
    "username": "system",
    "avatar_template": "/user_avatar/community.monzo.com/system/{size}/1_1.png",
    "name": "system",
    "moderator": true,
    "admin": true
   }
  ],
  "user_summary": {
   "likes_given": 0,
   "likes_received": 0,
   "posts_read_count": 25,
   "days_visited": 1,
   "topic_count": 0,
   "post_count": 1,
   "time_read": "6m",
   "solved_count": 0,
   "topic_ids": [],
   "replies": [
    {
     "post_number": 362,
     "like_count": 0,
     "created_at": "2017-09-13T16:11:35.850Z",
     "topic_id": 17518
    }
   ],
   "links": [],
   "most_liked_by_users": [],
   "most_liked_users": [],
   "most_replied_to_users": [],
   "badges": [
    {
     "id": 25491,
     "granted_at": "2017-09-13T16:11:37.409Z",
     "count": 1,
     "post_id": 72717,
     "post_number": 362,
     "badge_id": 41,
     "user_id": 19311,
     "granted_by_id": -1,
     "topic_id": 17518
    }
   ]
  }
 }
}