{
 "user_badges": [
  {
   "id": 24141,
   "granted_at": "2017-09-07T07:18:39.342Z",
   "count": 1,
   "badge_id": 2,
   "user_id": 727,
   "granted_by_id": -1
  },
  {
   "id": 1929,
   "granted_at": "2016-02-02T13:19:11.429Z",
   "count": 1,
   "badge_id": 101,
   "user_id": 727,
   "granted_by_id": -1
  },
  {
   "id": 12449,
   "granted_at": "2017-02-02T13:19:11.377Z",
   "count": 1,
   "badge_id": 24,
   "user_id": 727,
   "granted_by_id": -1
  }
 ],
 "badges": [
  {
   "id": 2,
   "name": "Member",
   "description": "<a href=\"https://meta.discourse.org/t/what-do-user-trust-levels-do/4924/5\">Granted</a> invitations, group messaging, more likes",
   "grant_count": 711,
   "allow_title": false,
   "multiple_grant": false,
   "icon": "fa-user",
   "image": null,
   "listable": true,
   "enabled": true,
   "badge_grouping_id": 4,
   "system": true,
   "slug": "member",
   "badge_type_id": 3
  },
  {
   "id": 101,
   "name": "Mondo Alpha",
   "description": "",
   "grant_count": 1041,
   "allow_title": true,
   "multiple_grant": false,
   "icon": "fa-trophy",
   "image": "fa-trophy",
   "listable": true,
   "enabled": true,
   "badge_grouping_id": 5,
   "system": false,
   "slug": "mondo-alpha",
   "badge_type_id": 1
  },
  {
   "id": 24,
   "name": "Anniversary",
   "description": "Active member for a year, posted at least once",
   "grant_count": 1305,
   "allow_title": false,
   "multiple_grant": true,
   "icon": "fa-clock-o",
   "image": null,
   "listable": true,
   "enabled": true,
   "badge_grouping_id": 2,
   "system": true,
   "slug": "anniversary",
   "badge_type_id": 2
  }
 ],
 "badge_types": [
  {
   "id": 3,
   "name": "Bronze",
   "sort_order": 7
  },
  {
   "id": 1,
   "name": "Gold",
   "sort_order": 9
  },
  {
   "id": 2,
   "name": "Silver",
   "sort_order": 8
  }
 ],
 "users": [
  {
   "id": 727,
   "username": "gw7489",
   "avatar_template": "https://avatars.discourse.org/v2/letter/g/edb3f5/{size}.png",
   "name": "George",
   "moderator": false,
   "admin": false
  },
  {
   "id": -1,
   "username": "system",
   "avatar_template": "/user_avatar/community.monzo.com/system/{size}/1_1.png",
   "name": "system",
   "moderator": true,
   "admin": true
  }
 ],
 "user": {
  "id": 727,
  "username": "gw7489",
  "avatar_template": "https://avatars.discourse.org/v2/letter/g/edb3f5/{size}.png",
  "name": "George",
  "last_posted_at": "2017-08-11T12:36:13.922Z",
  "last_seen_at": "2017-09-25T19:55:33.223Z",
  "created_at": "2016-02-02T13:19:11.377Z",
  "can_edit": false,
  "can_edit_username": false,
  "can_edit_email": false,
  "can_edit_name": false,
  "can_send_private_messages": false,
  "can_send_private_message_to_user": false,
  "trust_level": 2,
  "moderator": false,
  "admin": false,
  "title": "Mondo Alpha",
  "uploaded_avatar_id": null,
  "badge_count": 9,
  "custom_fields": null,
  "pending_count": 0,
  "profile_view_count": 30,
  "primary_group_name": null,
  "primary_group_flair_url": null,
  "primary_group_flair_bg_color": null,
  "primary_group_flair_color": null,
  "invited_by": {
   "id": 2,
   "username": "tristan",
   "avatar_template": "/user_avatar/community.monzo.com/tristan/{size}/273_1.png"
  },
  "groups": [
   {
    "id": 10,
    "automatic": true,
    "name": "trust_level_0",
    "display_name": "trust_level_0",
    "user_count": 23117,
    "mentionable_level": 0,
    "messageable_level": 0,
    "visibility_level": 0,
    "automatic_membership_email_domains": null,
    "automatic_membership_retroactive": false,
    "primary_group": false,
    "title": null,
    "grant_trust_level": null,
    "has_messages": false,
    "flair_url": null,
    "flair_bg_color": null,
    "flair_color": null,
    "bio_raw": null,
    "bio_cooked": null,
    "public_admission": false,
    "public_exit": false,
    "allow_membership_requests": false,
    "full_name": null,
    "default_notification_level": 3,
    "membership_request_template": null
   },
   {
    "id": 11,
    "automatic": true,
    "name": "trust_level_1",
    "display_name": "trust_level_1",
    "user_count": 6609,
    "mentionable_level": 0,
    "messageable_level": 0,
    "visibility_level": 0,
    "automatic_membership_email_domains": null,
    "automatic_membership_retroactive": false,
    "primary_group": false,
    "title": null,
    "grant_trust_level": null,
    "has_messages": false,
    "flair_url": null,
    "flair_bg_color": null,
    "flair_color": null,
    "bio_raw": null,
    "bio_cooked": null,
    "public_admission": false,
    "public_exit": false,
    "allow_membership_requests": false,
    "full_name": null,
    "default_notification_level": 3,
    "membership_request_template": null
   },
   {
    "id": 12,
    "automatic": true,
    "name": "trust_level_2",
    "display_name": "trust_level_2",
    "user_count": 712,
    "mentionable_level": 0,
    "messageable_level": 0,
    "visibility_level": 0,
    "automatic_membership_email_domains": null,
    "automatic_membership_retroactive": false,
    "primary_group": false,
    "title": null,
    "grant_trust_level": null,
    "has_messages": false,
    "flair_url": null,
    "flair_bg_color": null,
    "flair_color": null,
    "bio_raw": null,
    "bio_cooked": null,
    "public_admission": false,
    "public_exit": false,
    "allow_membership_requests": false,
    "full_name": null,
    "default_notification_level": 3,
    "membership_request_template": null
   },
   {
    "id": 43,
    "automatic": false,
    "name": "Alphas",
    "user_count": 1041,
    "mentionable_level": 0,
    "messageable_level": 0,
    "visibility_level": 0,
    "automatic_membership_email_domains": "",
    "automatic_membership_retroactive": false,
    "primary_group": false,
    "title": "Mondo Alpha",
    "grant_trust_level": null,
    "has_messages": false,
    "flair_url": null,
    "flair_bg_color": null,
    "flair_color": null,
    "bio_raw": null,
    "bio_cooked": null,
    "public_admission": false,
    "public_exit": false,
    "allow_membership_requests": false,
    "full_name": null,
    "default_notification_level": 3,
    "membership_request_template": null
   }
  ],
  "group_users": [
   {
    "group_id": 10,
    "user_id": 727,
    "notification_level": 2
   },
   {
    "group_id": 11,
    "user_id": 727,
    "notification_level": 2
   },
   {
    "group_id": 12,
    "user_id": 727,
    "notification_level": 3
   },
   {
    "group_id": 43,
    "user_id": 727,
    "notification_level": 2
   }
  ],
  "featured_user_badge_ids": [
   24141,
   1929,
   12449
  ],
  "card_badge": null
 },
 "summary": {
  "topics": [
   {
    "id": 2275,
    "created_at": "2016-04-20T08:19:29.357Z",
    "fancy_title": "Emergency! Stolen iPhone and alpha card",
    "slug": "emergency-stolen-iphone-and-alpha-card",
    "like_count": 6
   },
   {
    "id": 15420,
    "created_at": "2017-08-11T11:34:48.164Z",
    "fancy_title": "Gotta catch &lsquo;em all — The Monzo Current Account Preview testing challenge :trophy:",
    "slug": "gotta-catch-em-all-the-monzo-current-account-preview-testing-challenge",
    "like_count": 247
   },
   {
    "id": 2802,
    "created_at": "2016-05-17T09:02:41.344Z",
    "fancy_title": "Slightly annoyed",
    "slug": "slightly-annoyed",
    "like_count": 7
   },
   {
    "id": 5300,
    "created_at": "2016-08-16T13:27:08.764Z",
    "fancy_title": "Launching early access to travel reports!",
    "slug": "launching-early-access-to-travel-reports",
    "like_count": 67
   },
   {
    "id": 8026,
    "created_at": "2017-03-28T00:03:47.829Z",
    "fancy_title": "&lsquo;Spent Today&rsquo; BST issue?",
    "slug": "spent-today-bst-issue",
    "like_count": 0
   }
  ],
  "badges": [
   {
    "id": 2,
    "name": "Member",
    "description": "<a href=\"https://meta.discourse.org/t/what-do-user-trust-levels-do/4924/5\">Granted</a> invitations, group messaging, more likes",
    "grant_count": 711,
    "allow_title": false,
    "multiple_grant": false,
    "icon": "fa-user",
    "image": null,
    "listable": true,
    "enabled": true,
    "badge_grouping_id": 4,
    "system": true,
    "slug": "member",
    "badge_type_id": 3
   },
   {
    "id": 101,
    "name": "Mondo Alpha",
    "description": "",
    "grant_count": 1041,
    "allow_title": true,
    "multiple_grant": false,
    "icon": "fa-trophy",
    "image": "fa-trophy",
    "listable": true,
    "enabled": true,
    "badge_grouping_id": 5,
    "system": false,
    "slug": "mondo-alpha",
    "badge_type_id": 1
   },
   {
    "id": 24,
    "name": "Anniversary",
    "description": "Active member for a year, posted at least once",
    "grant_count": 1305,
    "allow_title": false,
    "multiple_grant": true,
    "icon": "fa-clock-o",
    "image": null,
    "listable": true,
    "enabled": true,
    "badge_grouping_id": 2,
    "system": true,
    "slug": "anniversary",
    "badge_type_id": 2
   },
   {
    "id": 17,
    "name": "Reader",
    "description": "Read every reply in a topic with more than 100 replies",
    "grant_count": 464,
    "allow_title": false,
    "multiple_grant": false,
    "icon": "fa-certificate",
    "image": null,
    "listable": true,
    "enabled": true,
    "badge_grouping_id": 1,
    "system": true,
    "slug": "reader",
    "badge_type_id": 3
   },
   {
    "id": 45,
    "name": "Enthusiast",
    "description": "Visited 10 days",
    "grant_count": 470,
    "allow_title": false,
    "multiple_grant": false,
    "icon": "fa-eye",
    "image": null,
    "listable": true,
    "enabled": true,
    "badge_grouping_id": 2,
    "system": true,
    "slug": "enthusiast",
    "badge_type_id": 3
   },
   {
    "id": 41,
    "name": "First Emoji",
    "description": "Used an Emoji in a Post",
    "grant_count": 1849,
    "allow_title": false,
    "multiple_grant": false,
    "icon": "fa-certificate",
    "image": null,
    "listable": true,
    "enabled": true,
    "badge_grouping_id": 1,
    "system": true,
    "slug": "first-emoji",
    "badge_type_id": 3
   }
  ],
  "badge_types": [
   {
    "id": 3,
    "name": "Bronze",
    "sort_order": 7
   },
   {
    "id": 1,
    "name": "Gold",
    "sort_order": 9
   },
   {
    "id": 2,
    "name": "Silver",
    "sort_order": 8
   }
  ],
  "users": [
   {
    "id": 727,
    "username": "gw7489",
    "avatar_template": "https://avatars.discourse.org/v2/letter/g/edb3f5/{size}.png",
    "name": "George",
    "moderator": false,
    "admin": false
   },
   {
    "id": -1,
    "username": "system",
    "avatar_template": "/user_avatar/community.monzo.com/system/{size}/1_1.png",
    "name": "system",
    "moderator": true,
    "admin": true
   }
  ],
  "user_summary": {
   "likes_given": 2,
   "likes_received": 2,
   "posts_read_count": 14158,
   "days_visited": 317,
   "topic_count": 0,
   "post_count": 6,
   "time_read": "1d",
   "solved_count": 0,
   "topic_ids": [],
   "replies": [
    {
     "post_number": 3,
     "like_count": 1,
     "created_at": "2016-04-20T10:28:29.273Z",
     "topic_id": 2275
    },
    {
     "post_number": 11,
     "like_count": 1,
     "created_at": "2017-08-11T12:36:13.922Z",
     "topic_id": 15420
    },
    {
     "post_number": 2,
     "like_count": 0,
     "created_at": "2016-05-17T09:07:06.694Z",
     "topic_id": 2802
    },
    {
     "post_number": 25,
     "like_count": 0,
     "created_at": "2016-08-17T07:32:29.539Z",
     "topic_id": 5300
    },
    {
     "post_number": 34,
     "like_count": 0,
     "created_at": "2016-08-17T09:19:14.935Z",
     "topic_id": 5300
    },
    {
     "post_number": 3,
     "like_count": 0,
     "created_at": "2017-03-28T02:28:51.116Z",
     "topic_id": 8026
    }
   ],
   "links": [],
   "most_liked_by_users": [
    {
     "id": 246,
     "username": "iansilversides",
     "avatar_template": "https://avatars.discourse.org/v2/letter/i/258eb7/{size}.png",
     "count": 1,
     "name": ""
    },
    {
     "id": 21564,
     "username": "Travelogical",
     "avatar_template": "https://avatars.discourse.org/v2/letter/t/fbc32d/{size}.png",
     "count": 1,
     "name": ""
    }
   ],
   "most_liked_users": [
    {
     "id": 1843,
     "username": "Avidfanofstuff",
     "avatar_template": "/user_avatar/community.monzo.com/avidfanofstuff/{size}/8907_1.png",
     "count": 1,
     "name": ""
    },
    {
     "id": 4618,
     "username": "sjcrln",
     "avatar_template": "https://avatars.discourse.org/v2/letter/s/f4b2a3/{size}.png",
     "count": 1,
     "name": "Steve"
    }
   ],
   "most_replied_to_users": [
    {
     "id": 14,
     "username": "ole",
     "avatar_template": "/user_avatar/community.monzo.com/ole/{size}/31_1.png",
     "count": 1,
     "name": "ole"
    },
    {
     "id": 1058,
     "username": "stuart",
     "avatar_template": "/user_avatar/community.monzo.com/stuart/{size}/729_1.png",
     "count": 1,
     "name": "Stuart Cameron"
    }
   ],
   "badges": [
    {
     "id": 24141,
     "granted_at": "2017-09-07T07:18:39.342Z",
     "count": 1,
     "badge_id": 2,
     "user_id": 727,
     "granted_by_id": -1
    },
    {
     "id": 1929,
     "granted_at": "2016-02-02T13:19:11.429Z",
     "count": 1,
     "badge_id": 101,
     "user_id": 727,
     "granted_by_id": -1
    },
    {
     "id": 12449,
     "granted_at": "2017-02-02T13:19:11.377Z",
     "count": 1,
     "badge_id": 24,
     "user_id": 727,
     "granted_by_id": -1
    },
    {
     "id": 5596,
     "granted_at": "2016-06-10T21:24:26.876Z",
     "count": 1,
     "badge_id": 17,
     "user_id": 727,
     "granted_by_id": -1
    },
    {
     "id": 24248,
     "granted_at": "2016-02-12T00:00:00.000Z",
     "count": 1,
     "badge_id": 45,
     "user_id": 727,
     "granted_by_id": -1
    },
    {
     "id": 7448,
     "granted_at": "2016-08-17T07:32:29.759Z",
     "count": 1,
     "post_id": 13588,
     "post_number": 25,
     "badge_id": 41,
     "user_id": 727,
     "granted_by_id": -1,
     "topic_id": 5300
    }
   ]
  }
 }
}