{
 "user_badges": [
  {
   "id": 4647,
   "granted_at": "2016-05-15T07:11:29.320Z",
   "count": 1,
   "badge_id": 1,
   "user_id": 2131,
   "granted_by_id": -1
  },
  {
   "id": 16862,
   "granted_at": "2017-05-13T21:53:41.034Z",
   "count": 1,
   "badge_id": 24,
   "user_id": 2131,
   "granted_by_id": -1
  },
  {
   "id": 24324,
   "granted_at": "2016-06-03T00:00:00.000Z",
   "count": 1,
   "badge_id": 45,
   "user_id": 2131,
   "granted_by_id": -1
  }
 ],
 "badges": [
  {
   "id": 1,
   "name": "Basic",
   "description": "<a href=\"https://meta.discourse.org/t/what-do-user-trust-levels-do/4924/4\">Granted</a> all essential community functions",
   "grant_count": 6608,
   "allow_title": false,
   "multiple_grant": false,
   "icon": "fa-user",
   "image": null,
   "listable": true,
   "enabled": true,
   "badge_grouping_id": 4,
   "system": true,
   "slug": "basic",
   "badge_type_id": 3
  },
  {
   "id": 24,
   "name": "Anniversary",
   "description": "Active member for a year, posted at least once",
   "grant_count": 1305,
   "allow_title": false,
   "multiple_grant": true,
   "icon": "fa-clock-o",
   "image": null,
   "listable": true,
   "enabled": true,
   "badge_grouping_id": 2,
   "system": true,
   "slug": "anniversary",
   "badge_type_id": 2
  },
  {
   "id": 45,
   "name": "Enthusiast",
   "description": "Visited 10 days",
   "grant_count": 470,
   "allow_title": false,
   "multiple_grant": false,
   "icon": "fa-eye",
   "image": null,
   "listable": true,
   "enabled": true,
   "badge_grouping_id": 2,
   "system": true,
   "slug": "enthusiast",
   "badge_type_id": 3
  }
 ],
 "badge_types": [
  {
   "id": 3,
   "name": "Bronze",
   "sort_order": 7
  },
  {
   "id": 2,
   "name": "Silver",
   "sort_order": 8
  }
 ],
 "users": [
  {
   "id": 2131,
   "username": "Jesko",
   "avatar_template": "/user_avatar/community.monzo.com/jesko/{size}/1433_1.png",
   "name": "",
   "moderator": false,
   "admin": false
  },
  {
   "id": -1,
   "username": "system",
   "avatar_template": "/user_avatar/community.monzo.com/system/{size}/1_1.png",
   "name": "system",
   "moderator": true,
   "admin": true
  }
 ],
 "user": {
  "id": 2131,
  "username": "Jesko",
  "avatar_template": "/user_avatar/community.monzo.com/jesko/{size}/1433_1.png",
  "name": "",
  "last_posted_at": "2016-07-13T21:36:55.443Z",
  "last_seen_at": "2017-09-18T23:32:41.121Z",
  "created_at": "2016-05-13T16:48:05.691Z",
  "can_edit": false,
  "can_edit_username": false,
  "can_edit_email": false,
  "can_edit_name": false,
  "can_send_private_messages": false,
  "can_send_private_message_to_user": false,
  "trust_level": 1,
  "moderator": false,
  "admin": false,
  "title": null,
  "uploaded_avatar_id": 1433,
  "badge_count": 6,
  "custom_fields": null,
  "pending_count": 0,
  "profile_view_count": 25,
  "primary_group_name": null,
  "primary_group_flair_url": null,
  "primary_group_flair_bg_color": null,
  "primary_group_flair_color": null,
  "invited_by": null,
  "groups": [
   {
    "id": 10,
    "automatic": true,
    "name": "trust_level_0",
    "display_name": "trust_level_0",
    "user_count": 23117,
    "mentionable_level": 0,
    "messageable_level": 0,
    "visibility_level": 0,
    "automatic_membership_email_domains": null,
    "automatic_membership_retroactive": false,
    "primary_group": false,
    "title": null,
    "grant_trust_level": null,
    "has_messages": false,
    "flair_url": null,
    "flair_bg_color": null,
    "flair_color": null,
    "bio_raw": null,
    "bio_cooked": null,
    "public_admission": false,
    "public_exit": false,
    "allow_membership_requests": false,
    "full_name": null,
    "default_notification_level": 3,
    "membership_request_template": null
   },
   {
    "id": 11,
    "automatic": true,
    "name": "trust_level_1",
    "display_name": "trust_level_1",
    "user_count": 6609,
    "mentionable_level": 0,
    "messageable_level": 0,
    "visibility_level": 0,
    "automatic_membership_email_domains": null,
    "automatic_membership_retroactive": false,
    "primary_group": false,
    "title": null,
    "grant_trust_level": null,
    "has_messages": false,
    "flair_url": null,
    "flair_bg_color": null,
    "flair_color": null,
    "bio_raw": null,
    "bio_cooked": null,
    "public_admission": false,
    "public_exit": false,
    "allow_membership_requests": false,
    "full_name": null,
    "default_notification_level": 3,
    "membership_request_template": null
   }
  ],
  "group_users": [
   {
    "group_id": 10,
    "user_id": 2131,
    "notification_level": 2
   },
   {
    "group_id": 11,
    "user_id": 2131,
    "notification_level": 2
   }
  ],
  "featured_user_badge_ids": [
   4647,
   16862,
   24324
  ],
  "card_badge": null
 },
 "summary": {
  "topics": [
   {
    "id": 3003,
    "created_at": "2016-05-24T22:39:54.478Z",
    "fancy_title": "Simplifying my wallet",
    "slug": "simplifying-my-wallet",
    "like_count": 22
   },
   {
    "id": 3870,
    "created_at": "2016-06-18T13:43:51.882Z",
    "fancy_title": "Monzo in Chile - 2",
    "slug": "monzo-in-chile-2",
    "like_count": 0
   },
   {
    "id": 3100,
    "created_at": "2016-05-26T11:27:30.872Z",
    "fancy_title": "So I spent a fortune one night out Hamburg&hellip;. &ldquo;Spent Today&rdquo; extension?",
    "slug": "so-i-spent-a-fortune-one-night-out-hamburg-spent-today-extension",
    "like_count": 2
   }
  ],
  "badges": [
   {
    "id": 1,
    "name": "Basic",
    "description": "<a href=\"https://meta.discourse.org/t/what-do-user-trust-levels-do/4924/4\">Granted</a> all essential community functions",
    "grant_count": 6608,
    "allow_title": false,
    "multiple_grant": false,
    "icon": "fa-user",
    "image": null,
    "listable": true,
    "enabled": true,
    "badge_grouping_id": 4,
    "system": true,
    "slug": "basic",
    "badge_type_id": 3
   },
   {
    "id": 24,
    "name": "Anniversary",
    "description": "Active member for a year, posted at least once",
    "grant_count": 1305,
    "allow_title": false,
    "multiple_grant": true,
    "icon": "fa-clock-o",
    "image": null,
    "listable": true,
    "enabled": true,
    "badge_grouping_id": 2,
    "system": true,
    "slug": "anniversary",
    "badge_type_id": 2
   },
   {
    "id": 45,
    "name": "Enthusiast",
    "description": "Visited 10 days",
    "grant_count": 470,
    "allow_title": false,
    "multiple_grant": false,
    "icon": "fa-eye",
    "image": null,
    "listable": true,
    "enabled": true,
    "badge_grouping_id": 2,
    "system": true,
    "slug": "enthusiast",
    "badge_type_id": 3
   },
   {
    "id": 40,
    "name": "First Mention",
    "description": "Mentioned a user in a post",
    "grant_count": 605,
    "allow_title": false,
    "multiple_grant": false,
    "icon": "fa-certificate",
    "image": null,
    "listable": true,
    "enabled": true,
    "badge_grouping_id": 1,
    "system": true,
    "slug": "first-mention",
    "badge_type_id": 3
   },
   {
    "id": 41,
    "name": "First Emoji",
    "description": "Used an Emoji in a Post",
    "grant_count": 1849,
    "allow_title": false,
    "multiple_grant": false,
    "icon": "fa-certificate",
    "image": null,
    "listable": true,
    "enabled": true,
    "badge_grouping_id": 1,
    "system": true,
    "slug": "first-emoji",
    "badge_type_id": 3
   },
   {
    "id": 5,
    "name": "Welcome",
    "description": "Received a like",
    "grant_count": 3576,
    "allow_title": false,
    "multiple_grant": false,
    "icon": "fa-certificate",
    "image": null,
    "listable": true,
    "enabled": true,
    "badge_grouping_id": 2,
    "system": true,
    "slug": "welcome",
    "badge_type_id": 3
   }
  ],
  "badge_types": [
   {
    "id": 3,
    "name": "Bronze",
    "sort_order": 7
   },
   {
    "id": 2,
    "name": "Silver",
    "sort_order": 8
   }
  ],
  "users": [
   {
    "id": 2131,
    "username": "Jesko",
    "avatar_template": "/user_avatar/community.monzo.com/jesko/{size}/1433_1.png",
    "name": "",
    "moderator": false,
    "admin": false
   },
   {
    "id": -1,
    "username": "system",
    "avatar_template": "/user_avatar/community.monzo.com/system/{size}/1_1.png",
    "name": "system",
    "moderator": true,
    "admin": true
   }
  ],
  "user_summary": {
   "likes_given": 0,
   "likes_received": 11,
   "posts_read_count": 997,
   "days_visited": 69,
   "topic_count": 2,
   "post_count": 3,
   "time_read": "4h",
   "solved_count": 0,
   "topic_ids": [
    3003,
    3870
   ],
   "replies": [
    {
     "post_number": 6,
     "like_count": 1,
     "created_at": "2016-05-25T17:49:41.512Z",
     "topic_id": 3003
    },
    {
     "post_number": 10,
     "like_count": 1,
     "created_at": "2016-05-26T22:01:00.407Z",
     "topic_id": 3100
    },
    {
     "post_number": 13,
     "like_count": 1,
     "created_at": "2016-07-13T21:36:55.443Z",
     "topic_id": 3003
    }
   ],
   "links": [
    {
     "url": "https://www.etsy.com/uk/listing/233258205/2-inch-50mm-wide-woven-elastic-waistband",
     "title": "2 inch 50mm Wide Woven Elastic Waistband by SuzzaneCraft on Etsy",
     "clicks": 13,
     "post_number": 6,
     "topic_id": 3003
    },
    {
     "url": "https://www.etsy.com/uk/listing/229029965/superstitch-fluorescent-orange-thread",
     "title": "Superstitch Fluorescent Orange Thread 120s by SewingBeeFabrics",
     "clicks": 6,
     "post_number": 6,
     "topic_id": 3003
    }
   ],
   "most_liked_by_users": [
    {
     "id": 2247,
     "username": "RyanH",
     "avatar_template": "/user_avatar/community.monzo.com/ryanh/{size}/11324_1.png",
     "count": 2,
     "name": "Ryan"
    },
    {
     "id": 884,
     "username": "connorianreilly",
     "avatar_template": "/user_avatar/community.monzo.com/connorianreilly/{size}/652_1.png",
     "count": 1,
     "name": "connorianreilly"
    },
    {
     "id": 1058,
     "username": "stuart",
     "avatar_template": "/user_avatar/community.monzo.com/stuart/{size}/729_1.png",
     "count": 1,
     "name": "Stuart Cameron"
    },
    {
     "id": 1170,
     "username": "Matty",
     "avatar_template": "https://avatars.discourse.org/v2/letter/m/898d66/{size}.png",
     "count": 1,
     "name": "Mat Morris"
    },
    {
     "id": 1445,
     "username": "ChrisMac",
     "avatar_template": "https://avatars.discourse.org/v2/letter/c/e19b73/{size}.png",
     "count": 1,
     "name": "Christopher McCarthy"
    },
    {
     "id": 3712,
     "username": "tmr",
     "avatar_template": "/user_avatar/community.monzo.com/tmr/{size}/2372_1.png",
     "count": 1,
     "name": "Tim Robinson"
    }
   ],
   "most_liked_users": [],
   "most_replied_to_users": [
    {
     "id": 2949,
     "username": "moneypenny",
     "avatar_template": "/user_avatar/community.monzo.com/moneypenny/{size}/1944_1.png",
     "count": 1,
     "name": "miss moneypenny "
    }
   ],
   "badges": [
    {
     "id": 4647,
     "granted_at": "2016-05-15T07:11:29.320Z",
     "count": 1,
     "badge_id": 1,
     "user_id": 2131,
     "granted_by_id": -1
    },
    {
     "id": 16862,
     "granted_at": "2017-05-13T21:53:41.034Z",
     "count": 1,
     "badge_id": 24,
     "user_id": 2131,
     "granted_by_id": -1
    },
    {
     "id": 24324,
     "granted_at": "2016-06-03T00:00:00.000Z",
     "count": 1,
     "badge_id": 45,
     "user_id": 2131,
     "granted_by_id": -1
    },
    {
     "id": 4977,
     "granted_at": "2016-05-25T17:49:41.512Z",
     "count": 1,
     "post_id": 6672,
     "post_number": 6,
     "badge_id": 40,
     "user_id": 2131,
     "granted_by_id": -1,
     "topic_id": 3003
    },
    {
     "id": 4947,
     "granted_at": "2016-05-24T22:39:59.234Z",
     "count": 1,
     "post_id": 6537,
     "post_number": 1,
     "badge_id": 41,
     "user_id": 2131,
     "granted_by_id": -1,
     "topic_id": 3003
    },
    {
     "id": 4949,
     "granted_at": "2016-05-24T23:23:32.769Z",
     "count": 1,
     "post_id": 6537,
     "post_number": 1,
     "badge_id": 5,
     "user_id": 2131,
     "granted_by_id": -1,
     "topic_id": 3003
    }
   ]
  }
 }
}