{
 "user_badges": [],
 "user": {
  "id": 19681,
  "username": "Jfm",
  "avatar_template": "https://avatars.discourse.org/v2/letter/j/b2d939/{size}.png",
  "name": "",
  "last_posted_at": null,
  "last_seen_at": "2017-09-13T17:51:30.059Z",
  "created_at": "2017-09-13T16:39:24.768Z",
  "can_edit": false,
  "can_edit_username": false,
  "can_edit_email": false,
  "can_edit_name": false,
  "can_send_private_messages": false,
  "can_send_private_message_to_user": false,
  "trust_level": 0,
  "moderator": false,
  "admin": false,
  "title": null,
  "uploaded_avatar_id": null,
  "badge_count": 0,
  "custom_fields": null,
  "pending_count": 0,
  "profile_view_count": 0,
  "primary_group_name": null,
  "primary_group_flair_url": null,
  "primary_group_flair_bg_color": null,
  "primary_group_flair_color": null,
  "invited_by": null,
  "groups": [
   {
    "id": 10,
    "automatic": true,
    "name": "trust_level_0",
    "display_name": "trust_level_0",
    "user_count": 23117,
    "mentionable_level": 0,
    "messageable_level": 0,
    "visibility_level": 0,
    "automatic_membership_email_domains": null,
    "automatic_membership_retroactive": false,
    "primary_group": false,
    "title": null,
    "grant_trust_level": null,
    "has_messages": false,
    "flair_url": null,
    "flair_bg_color": null,
    "flair_color": null,
    "bio_raw": null,
    "bio_cooked": null,
    "public_admission": false,
    "public_exit": false,
    "allow_membership_requests": false,
    "full_name": null,
    "default_notification_level": 3,
    "membership_request_template": null
   }
  ],
  "group_users": [
   {
    "group_id": 10,
    "user_id": 19681,
    "notification_level": 3
   }
  ],
  "featured_user_badge_ids": [],
  "card_badge": null
 },
 "summary": {
  "topics": [],
  "user_summary": {
   "likes_given": 0,
   "likes_received": 0,
   "posts_read_count": 1,
   "days_visited": 1,
   "topic_count": 0,
   "post_count": 0,
   "time_read": "< 1m",
   "solved_count": 0,
   "topic_ids": [],
   "replies": [],
   "links": [],
   "most_liked_by_users": [],
   "most_liked_users": [],
   "most_replied_to_users": [],
   "badges": []
  }
 }
}