{
 "user_badges": [
  {
   "id": 26078,
   "granted_at": "2017-09-13T15:17:40.622Z",
   "count": 1,
   "post_id": 72328,
   "post_number": 83,
   "badge_id": 5,
   "user_id": 19094,
   "granted_by_id": -1,
   "topic_id": 15473
  },
  {
   "id": 25371,
   "granted_at": "2017-09-13T15:05:10.288Z",
   "count": 1,
   "post_id": 71062,
   "post_number": 1,
   "badge_id": 11,
   "user_id": 19094,
   "granted_by_id": -1,
   "topic_id": 17508
  }
 ],
 "badges": [
  {
   "id": 5,
   "name": "Welcome",
   "description": "Received a like",
   "grant_count": 3576,
   "allow_title": false,
   "multiple_grant": false,
   "icon": "fa-certificate",
   "image": null,
   "listable": true,
   "enabled": true,
   "badge_grouping_id": 2,
   "system": true,
   "slug": "welcome",
   "badge_type_id": 3
  },
  {
   "id": 11,
   "name": "First Like",
   "description": "Liked a post",
   "grant_count": 3980,
   "allow_title": false,
   "multiple_grant": false,
   "icon": "fa-certificate",
   "image": null,
   "listable": true,
   "enabled": true,
   "badge_grouping_id": 1,
   "system": true,
   "slug": "first-like",
   "badge_type_id": 3
  }
 ],
 "badge_types": [
  {
   "id": 3,
   "name": "Bronze",
   "sort_order": 7
  }
 ],
 "users": [
  {
   "id": 19094,
   "username": "Kirsty_Curse",
   "avatar_template": "/user_avatar/community.monzo.com/kirsty_curse/{size}/10180_1.png",
   "name": "Kirsty Robertson",
   "moderator": false,
   "admin": false
  },
  {
   "id": -1,
   "username": "system",
   "avatar_template": "/user_avatar/community.monzo.com/system/{size}/1_1.png",
   "name": "system",
   "moderator": true,
   "admin": true
  }
 ],
 "topics": [
  {
   "id": 15473,
   "title": "What's the worst feature of your legacy bank?",
   "fancy_title": "What&rsquo;s the worst feature of your legacy bank?",
   "slug": "whats-the-worst-feature-of-your-legacy-bank",
   "posts_count": 161
  },
  {
   "id": 17508,
   "title": "Monzo receipts anyone? ;)",
   "fancy_title": "Monzo receipts anyone? ;)",
   "slug": "monzo-receipts-anyone",
   "posts_count": 1
  }
 ],
 "user": {
  "id": 19094,
  "username": "Kirsty_Curse",
  "avatar_template": "/user_avatar/community.monzo.com/kirsty_curse/{size}/10180_1.png",
  "name": "Kirsty Robertson",
  "last_posted_at": "2017-09-13T15:10:26.826Z",
  "last_seen_at": "2017-09-15T16:12:31.238Z",
  "created_at": "2017-09-13T15:01:35.371Z",
  "can_edit": false,
  "can_edit_username": false,
  "can_edit_email": false,
  "can_edit_name": false,
  "can_send_private_messages": false,
  "can_send_private_message_to_user": false,
  "trust_level": 0,
  "moderator": false,
  "admin": false,
  "title": null,
  "uploaded_avatar_id": 10180,
  "badge_count": 2,
  "custom_fields": null,
  "pending_count": 0,
  "profile_view_count": 2,
  "primary_group_name": null,
  "primary_group_flair_url": null,
  "primary_group_flair_bg_color": null,
  "primary_group_flair_color": null,
  "invited_by": null,
  "groups": [
   {
    "id": 10,
    "automatic": true,
    "name": "trust_level_0",
    "display_name": "trust_level_0",
    "user_count": 23117,
    "mentionable_level": 0,
    "messageable_level": 0,
    "visibility_level": 0,
    "automatic_membership_email_domains": null,
    "automatic_membership_retroactive": false,
    "primary_group": false,
    "title": null,
    "grant_trust_level": null,
    "has_messages": false,
    "flair_url": null,
    "flair_bg_color": null,
    "flair_color": null,
    "bio_raw": null,
    "bio_cooked": null,
    "public_admission": false,
    "public_exit": false,
    "allow_membership_requests": false,
    "full_name": null,
    "default_notification_level": 3,
    "membership_request_template": null
   }
  ],
  "group_users": [
   {
    "group_id": 10,
    "user_id": 19094,
    "notification_level": 3
   }
  ],
  "featured_user_badge_ids": [
   26078,
   25371
  ],
  "card_badge": null
 },
 "summary": {
  "topics": [
   {
    "id": 15473,
    "created_at": "2017-08-12T09:25:34.358Z",
    "fancy_title": "What&rsquo;s the worst feature of your legacy bank?",
    "slug": "whats-the-worst-feature-of-your-legacy-bank",
    "like_count": 258
   },
   {
    "id": 17508,
    "title": "Monzo receipts anyone? ;)",
    "fancy_title": "Monzo receipts anyone? ;)",
    "slug": "monzo-receipts-anyone",
    "posts_count": 1
   }
  ],
  "badges": [
   {
    "id": 5,
    "name": "Welcome",
    "description": "Received a like",
    "grant_count": 3576,
    "allow_title": false,
    "multiple_grant": false,
    "icon": "fa-certificate",
    "image": null,
    "listable": true,
    "enabled": true,
    "badge_grouping_id": 2,
    "system": true,
    "slug": "welcome",
    "badge_type_id": 3
   },
   {
    "id": 11,
    "name": "First Like",
    "description": "Liked a post",
    "grant_count": 3980,
    "allow_title": false,
    "multiple_grant": false,
    "icon": "fa-certificate",
    "image": null,
    "listable": true,
    "enabled": true,
    "badge_grouping_id": 1,
    "system": true,
    "slug": "first-like",
    "badge_type_id": 3
   }
  ],
  "badge_types": [
   {
    "id": 3,
    "name": "Bronze",
    "sort_order": 7
   }
  ],
  "users": [
   {
    "id": 19094,
    "username": "Kirsty_Curse",
    "avatar_template": "/user_avatar/community.monzo.com/kirsty_curse/{size}/10180_1.png",
    "name": "Kirsty Robertson",
    "moderator": false,
    "admin": false
   },
   {
    "id": -1,
    "username": "system",
    "avatar_template": "/user_avatar/community.monzo.com/system/{size}/1_1.png",
    "name": "system",
    "moderator": true,
    "admin": true
   }
  ],
  "user_summary": {
   "likes_given": 2,
   "likes_received": 4,
   "posts_read_count": 13,
   "days_visited": 2,
   "topic_count": 0,
   "post_count": 2,
   "time_read": "9m",
   "solved_count": 0,
   "topic_ids": [],
   "replies": [
    {
     "post_number": 84,
     "like_count": 3,
     "created_at": "2017-09-13T15:10:26.826Z",
     "topic_id": 15473
    },
    {
     "post_number": 83,
     "like_count": 1,
     "created_at": "2017-09-13T15:08:19.370Z",
     "topic_id": 15473
    }
   ],
   "links": [],
   "most_liked_by_users": [
    {
     "id": 884,
     "username": "connorianreilly",
     "avatar_template": "/user_avatar/community.monzo.com/connorianreilly/{size}/652_1.png",
     "count": 1,
     "name": "connorianreilly"
    },
    {
     "id": 1674,
     "username": "rarther",
     "avatar_template": "/user_avatar/community.monzo.com/rarther/{size}/5897_1.png",
     "count": 1,
     "name": "Rarther Invest"
    },
    {
     "id": 15418,
     "username": "crablab",
     "avatar_template": "/user_avatar/community.monzo.com/crablab/{size}/8285_1.png",
     "count": 1,
     "name": "Hugh"
    },
    {
     "id": 15472,
     "username": "caspararemi",
     "avatar_template": "/user_avatar/community.monzo.com/caspararemi/{size}/8365_1.png",
     "count": 1,
     "name": "Caspar Aremi"
    }
   ],
   "most_liked_users": [
    {
     "id": 4164,
     "username": "Jaybuz",
     "avatar_template": "/user_avatar/community.monzo.com/jaybuz/{size}/2662_1.png",
     "count": 1,
     "name": ""
    },
    {
     "id": 15418,
     "username": "crablab",
     "avatar_template": "/user_avatar/community.monzo.com/crablab/{size}/8285_1.png",
     "count": 1,
     "name": "Hugh"
    }
   ],
   "most_replied_to_users": [
    {
     "id": 4164,
     "username": "Jaybuz",
     "avatar_template": "/user_avatar/community.monzo.com/jaybuz/{size}/2662_1.png",
     "count": 1,
     "name": ""
    }
   ],
   "badges": [
    {
     "id": 26078,
     "granted_at": "2017-09-13T15:17:40.622Z",
     "count": 1,
     "post_id": 72328,
     "post_number": 83,
     "badge_id": 5,
     "user_id": 19094,
     "granted_by_id": -1,
     "topic_id": 15473
    },
    {
     "id": 25371,
     "granted_at": "2017-09-13T15:05:10.288Z",
     "count": 1,
     "post_id": 71062,
     "post_number": 1,
     "badge_id": 11,
     "user_id": 19094,
     "granted_by_id": -1,
     "topic_id": 17508
    }
   ]
  }
 }
}