{
 "user_badges": [
  {
   "id": 27510,
   "granted_at": "2017-09-21T09:56:45.420Z",
   "count": 1,
   "badge_id": 1,
   "user_id": 17253,
   "granted_by_id": -1
  },
  {
   "id": 27567,
   "granted_at": "2017-09-21T19:46:58.322Z",
   "count": 1,
   "badge_id": 16,
   "user_id": 17253,
   "granted_by_id": -1
  },
  {
   "id": 27566,
   "granted_at": "2017-09-21T19:34:21.701Z",
   "count": 1,
   "post_id": 80557,
   "post_number": 125,
   "badge_id": 5,
   "user_id": 17253,
   "granted_by_id": -1,
   "topic_id": 15473
  }
 ],
 "badges": [
  {
   "id": 1,
   "name": "Basic",
   "description": "<a href=\"https://meta.discourse.org/t/what-do-user-trust-levels-do/4924/4\">Granted</a> all essential community functions",
   "grant_count": 6608,
   "allow_title": false,
   "multiple_grant": false,
   "icon": "fa-user",
   "image": null,
   "listable": true,
   "enabled": true,
   "badge_grouping_id": 4,
   "system": true,
   "slug": "basic",
   "badge_type_id": 3
  },
  {
   "id": 16,
   "name": "Read Guidelines",
   "description": "Read the <a href=\"/guidelines\">community guidelines</a>",
   "grant_count": 824,
   "allow_title": false,
   "multiple_grant": false,
   "icon": "fa-certificate",
   "image": null,
   "listable": true,
   "enabled": true,
   "badge_grouping_id": 1,
   "system": true,
   "slug": "read-guidelines",
   "badge_type_id": 3
  },
  {
   "id": 5,
   "name": "Welcome",
   "description": "Received a like",
   "grant_count": 3576,
   "allow_title": false,
   "multiple_grant": false,
   "icon": "fa-certificate",
   "image": null,
   "listable": true,
   "enabled": true,
   "badge_grouping_id": 2,
   "system": true,
   "slug": "welcome",
   "badge_type_id": 3
  }
 ],
 "badge_types": [
  {
   "id": 3,
   "name": "Bronze",
   "sort_order": 7
  }
 ],
 "users": [
  {
   "id": 17253,
   "username": "KoalaKorr",
   "avatar_template": "/user_avatar/community.monzo.com/koalakorr/{size}/11181_1.png",
   "name": "Aleksandra",
   "moderator": false,
   "admin": false
  },
  {
   "id": -1,
   "username": "system",
   "avatar_template": "/user_avatar/community.monzo.com/system/{size}/1_1.png",
   "name": "system",
   "moderator": true,
   "admin": true
  }
 ],
 "topics": [
  {
   "id": 15473,
   "title": "What's the worst feature of your legacy bank?",
   "fancy_title": "What&rsquo;s the worst feature of your legacy bank?",
   "slug": "whats-the-worst-feature-of-your-legacy-bank",
   "posts_count": 161
  }
 ],
 "user": {
  "id": 17253,
  "username": "KoalaKorr",
  "avatar_template": "/user_avatar/community.monzo.com/koalakorr/{size}/11181_1.png",
  "name": "Aleksandra",
  "last_posted_at": "2017-09-22T06:07:08.035Z",
  "last_seen_at": "2017-09-22T08:52:29.404Z",
  "created_at": "2017-08-21T08:46:30.280Z",
  "can_edit": false,
  "can_edit_username": false,
  "can_edit_email": false,
  "can_edit_name": false,
  "can_send_private_messages": false,
  "can_send_private_message_to_user": false,
  "trust_level": 1,
  "moderator": false,
  "admin": false,
  "title": null,
  "uploaded_avatar_id": 11181,
  "badge_count": 4,
  "custom_fields": null,
  "pending_count": 0,
  "profile_view_count": 7,
  "primary_group_name": null,
  "primary_group_flair_url": null,
  "primary_group_flair_bg_color": null,
  "primary_group_flair_color": null,
  "invited_by": null,
  "groups": [
   {
    "id": 10,
    "automatic": true,
    "name": "trust_level_0",
    "display_name": "trust_level_0",
    "user_count": 23117,
    "mentionable_level": 0,
    "messageable_level": 0,
    "visibility_level": 0,
    "automatic_membership_email_domains": null,
    "automatic_membership_retroactive": false,
    "primary_group": false,
    "title": null,
    "grant_trust_level": null,
    "has_messages": false,
    "flair_url": null,
    "flair_bg_color": null,
    "flair_color": null,
    "bio_raw": null,
    "bio_cooked": null,
    "public_admission": false,
    "public_exit": false,
    "allow_membership_requests": false,
    "full_name": null,
    "default_notification_level": 3,
    "membership_request_template": null
   },
   {
    "id": 11,
    "automatic": true,
    "name": "trust_level_1",
    "display_name": "trust_level_1",
    "user_count": 6609,
    "mentionable_level": 0,
    "messageable_level": 0,
    "visibility_level": 0,
    "automatic_membership_email_domains": null,
    "automatic_membership_retroactive": false,
    "primary_group": false,
    "title": null,
    "grant_trust_level": null,
    "has_messages": false,
    "flair_url": null,
    "flair_bg_color": null,
    "flair_color": null,
    "bio_raw": null,
    "bio_cooked": null,
    "public_admission": false,
    "public_exit": false,
    "allow_membership_requests": false,
    "full_name": null,
    "default_notification_level": 3,
    "membership_request_template": null
   }
  ],
  "group_users": [
   {
    "group_id": 10,
    "user_id": 17253,
    "notification_level": 3
   },
   {
    "group_id": 11,
    "user_id": 17253,
    "notification_level": 3
   }
  ],
  "featured_user_badge_ids": [
   27510,
   27567,
   27566
  ],
  "card_badge": null
 },
 "summary": {
  "topics": [
   {
    "id": 23344,
    "created_at": "2017-09-22T05:52:30.990Z",
    "fancy_title": "Will the long 16 digit number be printed on cards?",
    "slug": "will-the-long-16-digit-number-be-printed-on-cards",
    "like_count": 7
   },
   {
    "id": 15473,
    "created_at": "2017-08-12T09:25:34.358Z",
    "fancy_title": "What&rsquo;s the worst feature of your legacy bank?",
    "slug": "whats-the-worst-feature-of-your-legacy-bank",
    "like_count": 258
   },
   {
    "id": 15410,
    "created_at": "2017-08-11T10:22:29.354Z",
    "fancy_title": "Receiving Salary in CA",
    "slug": "receiving-salary-in-ca",
    "like_count": 294
   },
   {
    "id": 9589,
    "created_at": "2017-05-26T15:32:19.745Z",
    "fancy_title": "Breakdown",
    "slug": "breakdown",
    "like_count": 207
   },
   {
    "id": 23160,
    "created_at": "2017-09-20T15:42:49.449Z",
    "fancy_title": "Tether the phone to the card",
    "slug": "tether-the-phone-to-the-card",
    "like_count": 3
   },
   {
    "id": 6151,
    "created_at": "2016-09-26T15:18:47.833Z",
    "fancy_title": "Data usage",
    "slug": "data-usage",
    "like_count": 4
   }
  ],
  "badges": [
   {
    "id": 1,
    "name": "Basic",
    "description": "<a href=\"https://meta.discourse.org/t/what-do-user-trust-levels-do/4924/4\">Granted</a> all essential community functions",
    "grant_count": 6608,
    "allow_title": false,
    "multiple_grant": false,
    "icon": "fa-user",
    "image": null,
    "listable": true,
    "enabled": true,
    "badge_grouping_id": 4,
    "system": true,
    "slug": "basic",
    "badge_type_id": 3
   },
   {
    "id": 16,
    "name": "Read Guidelines",
    "description": "Read the <a href=\"/guidelines\">community guidelines</a>",
    "grant_count": 824,
    "allow_title": false,
    "multiple_grant": false,
    "icon": "fa-certificate",
    "image": null,
    "listable": true,
    "enabled": true,
    "badge_grouping_id": 1,
    "system": true,
    "slug": "read-guidelines",
    "badge_type_id": 3
   },
   {
    "id": 5,
    "name": "Welcome",
    "description": "Received a like",
    "grant_count": 3576,
    "allow_title": false,
    "multiple_grant": false,
    "icon": "fa-certificate",
    "image": null,
    "listable": true,
    "enabled": true,
    "badge_grouping_id": 2,
    "system": true,
    "slug": "welcome",
    "badge_type_id": 3
   },
   {
    "id": 11,
    "name": "First Like",
    "description": "Liked a post",
    "grant_count": 3980,
    "allow_title": false,
    "multiple_grant": false,
    "icon": "fa-certificate",
    "image": null,
    "listable": true,
    "enabled": true,
    "badge_grouping_id": 1,
    "system": true,
    "slug": "first-like",
    "badge_type_id": 3
   }
  ],
  "badge_types": [
   {
    "id": 3,
    "name": "Bronze",
    "sort_order": 7
   }
  ],
  "users": [
   {
    "id": 17253,
    "username": "KoalaKorr",
    "avatar_template": "/user_avatar/community.monzo.com/koalakorr/{size}/11181_1.png",
    "name": "Aleksandra",
    "moderator": false,
    "admin": false
   },
   {
    "id": -1,
    "username": "system",
    "avatar_template": "/user_avatar/community.monzo.com/system/{size}/1_1.png",
    "name": "system",
    "moderator": true,
    "admin": true
   }
  ],
  "user_summary": {
   "likes_given": 20,
   "likes_received": 2,
   "posts_read_count": 840,
   "days_visited": 6,
   "topic_count": 1,
   "post_count": 6,
   "time_read": "2h",
   "solved_count": 0,
   "topic_ids": [
    23344
   ],
   "replies": [
    {
     "post_number": 125,
     "like_count": 1,
     "created_at": "2017-09-21T18:25:54.223Z",
     "topic_id": 15473
    },
    {
     "post_number": 58,
     "like_count": 0,
     "created_at": "2017-08-21T09:33:21.608Z",
     "topic_id": 15410
    },
    {
     "post_number": 57,
     "like_count": 0,
     "created_at": "2017-09-21T18:00:52.885Z",
     "topic_id": 9589
    },
    {
     "post_number": 124,
     "like_count": 0,
     "created_at": "2017-09-21T18:08:06.331Z",
     "topic_id": 15473
    },
    {
     "post_number": 8,
     "like_count": 0,
     "created_at": "2017-09-21T19:39:19.047Z",
     "topic_id": 23160
    },
    {
     "post_number": 10,
     "like_count": 0,
     "created_at": "2017-09-22T06:07:08.035Z",
     "topic_id": 6151
    }
   ],
   "links": [],
   "most_liked_by_users": [
    {
     "id": 1961,
     "username": "MIROW",
     "avatar_template": "/user_avatar/community.monzo.com/mirow/{size}/5941_1.png",
     "count": 1,
     "name": "Richard Müller"
    },
    {
     "id": 7492,
     "username": "Avishai",
     "avatar_template": "/user_avatar/community.monzo.com/avishai/{size}/8735_1.png",
     "count": 1,
     "name": "Marta"
    }
   ],
   "most_liked_users": [
    {
     "id": 3,
     "username": "hugo",
     "avatar_template": "/user_avatar/community.monzo.com/hugo/{size}/10_1.png",
     "count": 2,
     "name": "Hugo Cornejo"
    },
    {
     "id": 1961,
     "username": "MIROW",
     "avatar_template": "/user_avatar/community.monzo.com/mirow/{size}/5941_1.png",
     "count": 1,
     "name": "Richard Müller"
    },
    {
     "id": 3426,
     "username": "sacha",
     "avatar_template": "https://avatars.discourse.org/v2/letter/s/c0e974/{size}.png",
     "count": 1,
     "name": "Sacha"
    },
    {
     "id": 3630,
     "username": "aaronpreston",
     "avatar_template": "/user_avatar/community.monzo.com/aaronpreston/{size}/7958_1.png",
     "count": 1,
     "name": "Aaron Preston"
    },
    {
     "id": 10304,
     "username": "HoldenCarver",
     "avatar_template": "https://avatars.discourse.org/v2/letter/h/5daacb/{size}.png",
     "count": 1,
     "name": "Nick"
    },
    {
     "id": 18727,
     "username": "griff4161",
     "avatar_template": "https://avatars.discourse.org/v2/letter/g/e480ec/{size}.png",
     "count": 1,
     "name": "Scott Griffin"
    }
   ],
   "most_replied_to_users": [],
   "badges": [
    {
     "id": 27510,
     "granted_at": "2017-09-21T09:56:45.420Z",
     "count": 1,
     "badge_id": 1,
     "user_id": 17253,
     "granted_by_id": -1
    },
    {
     "id": 27567,
     "granted_at": "2017-09-21T19:46:58.322Z",
     "count": 1,
     "badge_id": 16,
     "user_id": 17253,
     "granted_by_id": -1
    },
    {
     "id": 27566,
     "granted_at": "2017-09-21T19:34:21.701Z",
     "count": 1,
     "post_id": 80557,
     "post_number": 125,
     "badge_id": 5,
     "user_id": 17253,
     "granted_by_id": -1,
     "topic_id": 15473
    },
    {
     "id": 22847,
     "granted_at": "2017-08-21T09:27:32.722Z",
     "count": 1,
     "post_id": 63972,
     "post_number": 59,
     "badge_id": 11,
     "user_id": 17253,
     "granted_by_id": -1,
     "topic_id": 15410
    }
   ]
  }
 }
}