{
 "user_badges": [
  {
   "id": 3731,
   "granted_at": "2016-04-14T17:51:22.438Z",
   "count": 1,
   "badge_id": 1,
   "user_id": 1371,
   "granted_by_id": -1
  },
  {
   "id": 14909,
   "granted_at": "2017-04-04T15:10:58.418Z",
   "count": 1,
   "badge_id": 24,
   "user_id": 1371,
   "granted_by_id": -1
  }
 ],
 "badges": [
  {
   "id": 1,
   "name": "Basic",
   "description": "<a href=\"https://meta.discourse.org/t/what-do-user-trust-levels-do/4924/4\">Granted</a> all essential community functions",
   "grant_count": 6608,
   "allow_title": false,
   "multiple_grant": false,
   "icon": "fa-user",
   "image": null,
   "listable": true,
   "enabled": true,
   "badge_grouping_id": 4,
   "system": true,
   "slug": "basic",
   "badge_type_id": 3
  },
  {
   "id": 24,
   "name": "Anniversary",
   "description": "Active member for a year, posted at least once",
   "grant_count": 1305,
   "allow_title": false,
   "multiple_grant": true,
   "icon": "fa-clock-o",
   "image": null,
   "listable": true,
   "enabled": true,
   "badge_grouping_id": 2,
   "system": true,
   "slug": "anniversary",
   "badge_type_id": 2
  }
 ],
 "badge_types": [
  {
   "id": 3,
   "name": "Bronze",
   "sort_order": 7
  },
  {
   "id": 2,
   "name": "Silver",
   "sort_order": 8
  }
 ],
 "users": [
  {
   "id": 1371,
   "username": "m4tty_j",
   "avatar_template": "/user_avatar/community.monzo.com/m4tty_j/{size}/940_1.png",
   "name": "Matt Jenkinson",
   "moderator": false,
   "admin": false
  },
  {
   "id": -1,
   "username": "system",
   "avatar_template": "/user_avatar/community.monzo.com/system/{size}/1_1.png",
   "name": "system",
   "moderator": true,
   "admin": true
  }
 ],
 "user": {
  "id": 1371,
  "username": "m4tty_j",
  "avatar_template": "/user_avatar/community.monzo.com/m4tty_j/{size}/940_1.png",
  "name": "Matt Jenkinson",
  "last_posted_at": "2017-08-19T23:02:06.121Z",
  "last_seen_at": "2017-09-25T11:42:10.407Z",
  "created_at": "2016-04-04T15:10:58.418Z",
  "website": "http://twitter.com/m4tty_j",
  "website_name": "twitter.com/m4tty_j",
  "location": "Sunderland UK",
  "can_edit": false,
  "can_edit_username": false,
  "can_edit_email": false,
  "can_edit_name": false,
  "can_send_private_messages": false,
  "can_send_private_message_to_user": false,
  "trust_level": 1,
  "moderator": false,
  "admin": false,
  "title": null,
  "uploaded_avatar_id": 940,
  "badge_count": 2,
  "custom_fields": null,
  "pending_count": 0,
  "profile_view_count": 27,
  "primary_group_name": null,
  "primary_group_flair_url": null,
  "primary_group_flair_bg_color": null,
  "primary_group_flair_color": null,
  "invited_by": null,
  "groups": [
   {
    "id": 10,
    "automatic": true,
    "name": "trust_level_0",
    "display_name": "trust_level_0",
    "user_count": 23117,
    "mentionable_level": 0,
    "messageable_level": 0,
    "visibility_level": 0,
    "automatic_membership_email_domains": null,
    "automatic_membership_retroactive": false,
    "primary_group": false,
    "title": null,
    "grant_trust_level": null,
    "has_messages": false,
    "flair_url": null,
    "flair_bg_color": null,
    "flair_color": null,
    "bio_raw": null,
    "bio_cooked": null,
    "public_admission": false,
    "public_exit": false,
    "allow_membership_requests": false,
    "full_name": null,
    "default_notification_level": 3,
    "membership_request_template": null
   },
   {
    "id": 11,
    "automatic": true,
    "name": "trust_level_1",
    "display_name": "trust_level_1",
    "user_count": 6609,
    "mentionable_level": 0,
    "messageable_level": 0,
    "visibility_level": 0,
    "automatic_membership_email_domains": null,
    "automatic_membership_retroactive": false,
    "primary_group": false,
    "title": null,
    "grant_trust_level": null,
    "has_messages": false,
    "flair_url": null,
    "flair_bg_color": null,
    "flair_color": null,
    "bio_raw": null,
    "bio_cooked": null,
    "public_admission": false,
    "public_exit": false,
    "allow_membership_requests": false,
    "full_name": null,
    "default_notification_level": 3,
    "membership_request_template": null
   }
  ],
  "group_users": [
   {
    "group_id": 10,
    "user_id": 1371,
    "notification_level": 2
   },
   {
    "group_id": 11,
    "user_id": 1371,
    "notification_level": 2
   }
  ],
  "featured_user_badge_ids": [
   3731,
   14909
  ],
  "card_badge": null
 },
 "summary": {
  "topics": [
   {
    "id": 1975,
    "created_at": "2016-04-11T20:59:02.394Z",
    "fancy_title": "Notifications Widget",
    "slug": "notifications-widget",
    "like_count": 44
   },
   {
    "id": 143,
    "created_at": "2015-11-30T16:25:07.436Z",
    "fancy_title": "Known issues / bugs :bug::ant::beetle:",
    "slug": "known-issues-bugs",
    "like_count": 223
   },
   {
    "id": 15690,
    "created_at": "2017-08-16T10:56:02.393Z",
    "fancy_title": "Monzo Current Account App - Android Updates",
    "slug": "monzo-current-account-app-android-updates",
    "like_count": 40
   }
  ],
  "badges": [
   {
    "id": 1,
    "name": "Basic",
    "description": "<a href=\"https://meta.discourse.org/t/what-do-user-trust-levels-do/4924/4\">Granted</a> all essential community functions",
    "grant_count": 6608,
    "allow_title": false,
    "multiple_grant": false,
    "icon": "fa-user",
    "image": null,
    "listable": true,
    "enabled": true,
    "badge_grouping_id": 4,
    "system": true,
    "slug": "basic",
    "badge_type_id": 3
   },
   {
    "id": 24,
    "name": "Anniversary",
    "description": "Active member for a year, posted at least once",
    "grant_count": 1305,
    "allow_title": false,
    "multiple_grant": true,
    "icon": "fa-clock-o",
    "image": null,
    "listable": true,
    "enabled": true,
    "badge_grouping_id": 2,
    "system": true,
    "slug": "anniversary",
    "badge_type_id": 2
   }
  ],
  "badge_types": [
   {
    "id": 3,
    "name": "Bronze",
    "sort_order": 7
   },
   {
    "id": 2,
    "name": "Silver",
    "sort_order": 8
   }
  ],
  "users": [
   {
    "id": 1371,
    "username": "m4tty_j",
    "avatar_template": "/user_avatar/community.monzo.com/m4tty_j/{size}/940_1.png",
    "name": "Matt Jenkinson",
    "moderator": false,
    "admin": false
   },
   {
    "id": -1,
    "username": "system",
    "avatar_template": "/user_avatar/community.monzo.com/system/{size}/1_1.png",
    "name": "system",
    "moderator": true,
    "admin": true
   }
  ],
  "user_summary": {
   "likes_given": 0,
   "likes_received": 0,
   "posts_read_count": 395,
   "days_visited": 16,
   "topic_count": 0,
   "post_count": 3,
   "time_read": "1h",
   "solved_count": 0,
   "topic_ids": [],
   "replies": [
    {
     "post_number": 20,
     "like_count": 0,
     "created_at": "2016-04-14T17:51:59.669Z",
     "topic_id": 1975
    },
    {
     "post_number": 132,
     "like_count": 0,
     "created_at": "2016-07-09T19:00:02.602Z",
     "topic_id": 143
    },
    {
     "post_number": 12,
     "like_count": 0,
     "created_at": "2017-08-19T23:02:06.121Z",
     "topic_id": 15690
    }
   ],
   "links": [],
   "most_liked_by_users": [],
   "most_liked_users": [],
   "most_replied_to_users": [],
   "badges": [
    {
     "id": 3731,
     "granted_at": "2016-04-14T17:51:22.438Z",
     "count": 1,
     "badge_id": 1,
     "user_id": 1371,
     "granted_by_id": -1
    },
    {
     "id": 14909,
     "granted_at": "2017-04-04T15:10:58.418Z",
     "count": 1,
     "badge_id": 24,
     "user_id": 1371,
     "granted_by_id": -1
    }
   ]
  }
 }
}