{
 "user_badges": [
  {
   "id": 11046,
   "granted_at": "2016-12-31T00:11:45.559Z",
   "count": 1,
   "badge_id": 2,
   "user_id": 513,
   "granted_by_id": -1
  },
  {
   "id": 1344,
   "granted_at": "2016-01-23T13:45:26.867Z",
   "count": 1,
   "badge_id": 101,
   "user_id": 513,
   "granted_by_id": -1
  },
  {
   "id": 11945,
   "granted_at": "2017-01-23T13:45:26.841Z",
   "count": 1,
   "badge_id": 24,
   "user_id": 513,
   "granted_by_id": -1
  }
 ],
 "badges": [
  {
   "id": 2,
   "name": "Member",
   "description": "<a href=\"https://meta.discourse.org/t/what-do-user-trust-levels-do/4924/5\">Granted</a> invitations, group messaging, more likes",
   "grant_count": 711,
   "allow_title": false,
   "multiple_grant": false,
   "icon": "fa-user",
   "image": null,
   "listable": true,
   "enabled": true,
   "badge_grouping_id": 4,
   "system": true,
   "slug": "member",
   "badge_type_id": 3
  },
  {
   "id": 101,
   "name": "Mondo Alpha",
   "description": "",
   "grant_count": 1041,
   "allow_title": true,
   "multiple_grant": false,
   "icon": "fa-trophy",
   "image": "fa-trophy",
   "listable": true,
   "enabled": true,
   "badge_grouping_id": 5,
   "system": false,
   "slug": "mondo-alpha",
   "badge_type_id": 1
  },
  {
   "id": 24,
   "name": "Anniversary",
   "description": "Active member for a year, posted at least once",
   "grant_count": 1305,
   "allow_title": false,
   "multiple_grant": true,
   "icon": "fa-clock-o",
   "image": null,
   "listable": true,
   "enabled": true,
   "badge_grouping_id": 2,
   "system": true,
   "slug": "anniversary",
   "badge_type_id": 2
  }
 ],
 "badge_types": [
  {
   "id": 3,
   "name": "Bronze",
   "sort_order": 7
  },
  {
   "id": 1,
   "name": "Gold",
   "sort_order": 9
  },
  {
   "id": 2,
   "name": "Silver",
   "sort_order": 8
  }
 ],
 "users": [
  {
   "id": 513,
   "username": "matteogamba",
   "avatar_template": "/user_avatar/community.monzo.com/matteogamba/{size}/5225_1.png",
   "name": "Matteo",
   "moderator": false,
   "admin": false
  },
  {
   "id": -1,
   "username": "system",
   "avatar_template": "/user_avatar/community.monzo.com/system/{size}/1_1.png",
   "name": "system",
   "moderator": true,
   "admin": true
  }
 ],
 "user": {
  "id": 513,
  "username": "matteogamba",
  "avatar_template": "/user_avatar/community.monzo.com/matteogamba/{size}/5225_1.png",
  "name": "Matteo",
  "last_posted_at": "2017-08-31T17:21:17.345Z",
  "last_seen_at": "2017-09-13T23:53:39.186Z",
  "created_at": "2016-01-23T13:45:26.841Z",
  "website": "https://about.me/matteogamba",
  "website_name": "about.me/matteogamba",
  "location": "Berlin",
  "can_edit": false,
  "can_edit_username": false,
  "can_edit_email": false,
  "can_edit_name": false,
  "can_send_private_messages": false,
  "can_send_private_message_to_user": false,
  "trust_level": 2,
  "moderator": false,
  "admin": false,
  "title": "Crowdfunding Investor",
  "uploaded_avatar_id": 5225,
  "badge_count": 12,
  "custom_fields": null,
  "pending_count": 0,
  "profile_view_count": 77,
  "primary_group_name": "Investors",
  "primary_group_flair_url": "https://mondoimages.s3.amazonaws.com/images/community-investor-badge.png",
  "primary_group_flair_bg_color": null,
  "primary_group_flair_color": null,
  "card_image_badge": "fa-trophy",
  "card_image_badge_id": 101,
  "invited_by": {
   "id": 2,
   "username": "tristan",
   "avatar_template": "/user_avatar/community.monzo.com/tristan/{size}/273_1.png"
  },
  "groups": [
   {
    "id": 10,
    "automatic": true,
    "name": "trust_level_0",
    "display_name": "trust_level_0",
    "user_count": 23117,
    "mentionable_level": 0,
    "messageable_level": 0,
    "visibility_level": 0,
    "automatic_membership_email_domains": null,
    "automatic_membership_retroactive": false,
    "primary_group": false,
    "title": null,
    "grant_trust_level": null,
    "has_messages": false,
    "flair_url": null,
    "flair_bg_color": null,
    "flair_color": null,
    "bio_raw": null,
    "bio_cooked": null,
    "public_admission": false,
    "public_exit": false,
    "allow_membership_requests": false,
    "full_name": null,
    "default_notification_level": 3,
    "membership_request_template": null
   },
   {
    "id": 11,
    "automatic": true,
    "name": "trust_level_1",
    "display_name": "trust_level_1",
    "user_count": 6609,
    "mentionable_level": 0,
    "messageable_level": 0,
    "visibility_level": 0,
    "automatic_membership_email_domains": null,
    "automatic_membership_retroactive": false,
    "primary_group": false,
    "title": null,
    "grant_trust_level": null,
    "has_messages": false,
    "flair_url": null,
    "flair_bg_color": null,
    "flair_color": null,
    "bio_raw": null,
    "bio_cooked": null,
    "public_admission": false,
    "public_exit": false,
    "allow_membership_requests": false,
    "full_name": null,
    "default_notification_level": 3,
    "membership_request_template": null
   },
   {
    "id": 12,
    "automatic": true,
    "name": "trust_level_2",
    "display_name": "trust_level_2",
    "user_count": 712,
    "mentionable_level": 0,
    "messageable_level": 0,
    "visibility_level": 0,
    "automatic_membership_email_domains": null,
    "automatic_membership_retroactive": false,
    "primary_group": false,
    "title": null,
    "grant_trust_level": null,
    "has_messages": false,
    "flair_url": null,
    "flair_bg_color": null,
    "flair_color": null,
    "bio_raw": null,
    "bio_cooked": null,
    "public_admission": false,
    "public_exit": false,
    "allow_membership_requests": false,
    "full_name": null,
    "default_notification_level": 3,
    "membership_request_template": null
   },
   {
    "id": 43,
    "automatic": false,
    "name": "Alphas",
    "user_count": 1041,
    "mentionable_level": 0,
    "messageable_level": 0,
    "visibility_level": 0,
    "automatic_membership_email_domains": "",
    "automatic_membership_retroactive": false,
    "primary_group": false,
    "title": "Mondo Alpha",
    "grant_trust_level": null,
    "has_messages": false,
    "flair_url": null,
    "flair_bg_color": null,
    "flair_color": null,
    "bio_raw": null,
    "bio_cooked": null,
    "public_admission": false,
    "public_exit": false,
    "allow_membership_requests": false,
    "full_name": null,
    "default_notification_level": 3,
    "membership_request_template": null
   },
   {
    "id": 45,
    "automatic": false,
    "name": "Investors",
    "user_count": 1337,
    "mentionable_level": 0,
    "messageable_level": 0,
    "visibility_level": 0,
    "automatic_membership_email_domains": "",
    "automatic_membership_retroactive": false,
    "primary_group": true,
    "title": "Crowdfunding Investor",
    "grant_trust_level": null,
    "has_messages": false,
    "flair_url": "https://mondoimages.s3.amazonaws.com/images/community-investor-badge.png",
    "flair_bg_color": null,
    "flair_color": null,
    "bio_raw": "",
    "bio_cooked": null,
    "public_admission": false,
    "public_exit": false,
    "allow_membership_requests": false,
    "full_name": "",
    "default_notification_level": 3,
    "membership_request_template": null
   }
  ],
  "group_users": [
   {
    "group_id": 10,
    "user_id": 513,
    "notification_level": 2
   },
   {
    "group_id": 11,
    "user_id": 513,
    "notification_level": 2
   },
   {
    "group_id": 12,
    "user_id": 513,
    "notification_level": 2
   },
   {
    "group_id": 43,
    "user_id": 513,
    "notification_level": 2
   },
   {
    "group_id": 45,
    "user_id": 513,
    "notification_level": 2
   }
  ],
  "featured_user_badge_ids": [
   11046,
   1344,
   11945
  ],
  "card_badge": {
   "id": 101,
   "name": "Mondo Alpha",
   "description": "",
   "grant_count": 1041,
   "allow_title": true,
   "multiple_grant": false,
   "icon": "fa-trophy",
   "image": "fa-trophy",
   "listable": true,
   "enabled": true,
   "badge_grouping_id": 5,
   "system": false,
   "slug": "mondo-alpha",
   "badge_type_id": 1
  }
 },
 "summary": {
  "topics": [
   {
    "id": 9292,
    "created_at": "2017-05-20T20:54:36.053Z",
    "fancy_title": "Current accounts beta for crowdfunding investors",
    "slug": "current-accounts-beta-for-crowdfunding-investors",
    "like_count": 17
   },
   {
    "id": 7663,
    "created_at": "2017-02-26T11:17:58.638Z",
    "fancy_title": "Crowdcube investors - regular updates :mailbox_with_mail:",
    "slug": "crowdcube-investors-regular-updates",
    "like_count": 8
   },
   {
    "id": 7026,
    "created_at": "2016-12-31T00:41:02.727Z",
    "fancy_title": "Increasing even further Monzo&rsquo;s transparency :mag:",
    "slug": "increasing-even-further-monzos-transparency-mag",
    "like_count": 2
   },
   {
    "id": 1788,
    "created_at": "2016-04-06T10:42:39.910Z",
    "fancy_title": "Referring friends and family",
    "slug": "referring-friends-and-family",
    "like_count": 39
   },
   {
    "id": 3824,
    "created_at": "2016-06-15T19:37:06.162Z",
    "fancy_title": "International transfers (when you&rsquo;re a real bank)",
    "slug": "international-transfers-when-youre-a-real-bank",
    "like_count": 12
   },
   {
    "id": 5861,
    "created_at": "2016-09-07T18:03:52.837Z",
    "fancy_title": "Competitor update",
    "slug": "competitor-update",
    "like_count": 1390
   },
   {
    "id": 1154,
    "created_at": "2016-02-16T21:29:32.427Z",
    "fancy_title": "Foreign Currency Rendering in the daily transaction flow",
    "slug": "foreign-currency-rendering-in-the-daily-transaction-flow",
    "like_count": 6
   },
   {
    "id": 6999,
    "created_at": "2016-12-24T23:45:44.908Z",
    "fancy_title": "What would happen if .. card abroad",
    "slug": "what-would-happen-if-card-abroad",
    "like_count": 6
   }
  ],
  "badges": [
   {
    "id": 2,
    "name": "Member",
    "description": "<a href=\"https://meta.discourse.org/t/what-do-user-trust-levels-do/4924/5\">Granted</a> invitations, group messaging, more likes",
    "grant_count": 711,
    "allow_title": false,
    "multiple_grant": false,
    "icon": "fa-user",
    "image": null,
    "listable": true,
    "enabled": true,
    "badge_grouping_id": 4,
    "system": true,
    "slug": "member",
    "badge_type_id": 3
   },
   {
    "id": 101,
    "name": "Mondo Alpha",
    "description": "",
    "grant_count": 1041,
    "allow_title": true,
    "multiple_grant": false,
    "icon": "fa-trophy",
    "image": "fa-trophy",
    "listable": true,
    "enabled": true,
    "badge_grouping_id": 5,
    "system": false,
    "slug": "mondo-alpha",
    "badge_type_id": 1
   },
   {
    "id": 24,
    "name": "Anniversary",
    "description": "Active member for a year, posted at least once",
    "grant_count": 1305,
    "allow_title": false,
    "multiple_grant": true,
    "icon": "fa-clock-o",
    "image": null,
    "listable": true,
    "enabled": true,
    "badge_grouping_id": 2,
    "system": true,
    "slug": "anniversary",
    "badge_type_id": 2
   },
   {
    "id": 14,
    "name": "First Link",
    "description": "Added a link to another topic",
    "grant_count": 194,
    "allow_title": false,
    "multiple_grant": false,
    "icon": "fa-certificate",
    "image": null,
    "listable": true,
    "enabled": true,
    "badge_grouping_id": 1,
    "system": true,
    "slug": "first-link",
    "badge_type_id": 3
   },
   {
    "id": 15,
    "name": "First Quote",
    "description": "Quoted a post",
    "grant_count": 373,
    "allow_title": false,
    "multiple_grant": false,
    "icon": "fa-certificate",
    "image": null,
    "listable": true,
    "enabled": true,
    "badge_grouping_id": 1,
    "system": true,
    "slug": "first-quote",
    "badge_type_id": 3
   },
   {
    "id": 42,
    "name": "First Onebox",
    "description": "Posted a link that was oneboxed",
    "grant_count": 451,
    "allow_title": false,
    "multiple_grant": false,
    "icon": "fa-certificate",
    "image": null,
    "listable": true,
    "enabled": true,
    "badge_grouping_id": 1,
    "system": true,
    "slug": "first-onebox",
    "badge_type_id": 3
   }
  ],
  "badge_types": [
   {
    "id": 3,
    "name": "Bronze",
    "sort_order": 7
   },
   {
    "id": 1,
    "name": "Gold",
    "sort_order": 9
   },
   {
    "id": 2,
    "name": "Silver",
    "sort_order": 8
   }
  ],
  "users": [
   {
    "id": 513,
    "username": "matteogamba",
    "avatar_template": "/user_avatar/community.monzo.com/matteogamba/{size}/5225_1.png",
    "name": "Matteo",
    "moderator": false,
    "admin": false
   },
   {
    "id": -1,
    "username": "system",
    "avatar_template": "/user_avatar/community.monzo.com/system/{size}/1_1.png",
    "name": "system",
    "moderator": true,
    "admin": true
   }
  ],
  "user_summary": {
   "likes_given": 2,
   "likes_received": 23,
   "posts_read_count": 1364,
   "days_visited": 66,
   "topic_count": 3,
   "post_count": 14,
   "time_read": "5h",
   "solved_count": 0,
   "topic_ids": [
    9292,
    7663,
    7026
   ],
   "replies": [
    {
     "post_number": 13,
     "like_count": 6,
     "created_at": "2016-04-12T13:58:32.579Z",
     "topic_id": 1788
    },
    {
     "post_number": 3,
     "like_count": 4,
     "created_at": "2016-06-21T20:14:00.522Z",
     "topic_id": 3824
    },
    {
     "post_number": 620,
     "like_count": 4,
     "created_at": "2017-04-11T21:28:12.590Z",
     "topic_id": 5861
    },
    {
     "post_number": 6,
     "like_count": 2,
     "created_at": "2017-02-26T13:17:13.348Z",
     "topic_id": 7663
    },
    {
     "post_number": 3,
     "like_count": 1,
     "created_at": "2016-02-21T00:29:02.277Z",
     "topic_id": 1154
    },
    {
     "post_number": 11,
     "like_count": 1,
     "created_at": "2016-12-26T10:43:40.799Z",
     "topic_id": 6999
    }
   ],
   "links": [
    {
     "url": "https://transferwise.com/matteo",
     "title": "Transfer Money Online | Send Money Abroad with TransferWise",
     "clicks": 39,
     "post_number": 3,
     "topic_id": 3824
    },
    {
     "url": "https://twitter.com/sliver86/status/690517860129587200",
     "title": "Matteo Gamba on Twitter: \"#LunchWise @harshsinha interviewing @t_blom CEO of @getmondo talking about disruption in the banking world #fintech https://t.co/E4xzDaDVPq\"",
     "clicks": 28,
     "post_number": 620,
     "topic_id": 5861
    },
    {
     "url": "http://transferwise.com/invite",
     "title": "TransferWise - Send Money Abroad-Log in",
     "clicks": 22,
     "post_number": 13,
     "topic_id": 1788
    },
    {
     "url": "https://monzo.com/blog/2017/02/23/fundraising-announcement/",
     "title": "Monzo – Announcing Our £22m Investment Round and Crowdfunding!",
     "clicks": 20,
     "post_number": 1,
     "topic_id": 7663
    },
    {
     "url": "https://www.crowdcube.com/portfolio-updates?pid=20857",
     "title": "Join and Start Investing Today - Crowdcube",
     "clicks": 15,
     "post_number": 1,
     "topic_id": 7663
    },
    {
     "url": "https://monzo.com/blog/2016/05/27/transparent-product-roadmap/",
     "title": "Monzo – The Monzo Transparent Product Roadmap",
     "clicks": 14,
     "post_number": 1,
     "topic_id": 7026
    }
   ],
   "most_liked_by_users": [
    {
     "id": 3806,
     "username": "alexs",
     "avatar_template": "/user_avatar/community.monzo.com/alexs/{size}/2443_1.png",
     "count": 4,
     "name": "Alex Sherwood"
    },
    {
     "id": 1961,
     "username": "MIROW",
     "avatar_template": "/user_avatar/community.monzo.com/mirow/{size}/5941_1.png",
     "count": 2,
     "name": "Richard Müller"
    },
    {
     "id": 464,
     "username": "bailey",
     "avatar_template": "/user_avatar/community.monzo.com/bailey/{size}/3277_1.png",
     "count": 1,
     "name": "Bailey Kursar"
    },
    {
     "id": 1411,
     "username": "Angel",
     "avatar_template": "https://avatars.discourse.org/v2/letter/a/49beb7/{size}.png",
     "count": 1,
     "name": "Katherine Engler"
    },
    {
     "id": 2576,
     "username": "Bruce",
     "avatar_template": "/user_avatar/community.monzo.com/bruce/{size}/5499_1.png",
     "count": 1,
     "name": "Bruce"
    },
    {
     "id": 6890,
     "username": "mgrundig",
     "avatar_template": "https://avatars.discourse.org/v2/letter/m/c67d28/{size}.png",
     "count": 1,
     "name": "Marcelo Grundig"
    }
   ],
   "most_liked_users": [
    {
     "id": 1961,
     "username": "MIROW",
     "avatar_template": "/user_avatar/community.monzo.com/mirow/{size}/5941_1.png",
     "count": 1,
     "name": "Richard Müller"
    },
    {
     "id": 3806,
     "username": "alexs",
     "avatar_template": "/user_avatar/community.monzo.com/alexs/{size}/2443_1.png",
     "count": 1,
     "name": "Alex Sherwood"
    }
   ],
   "most_replied_to_users": [
    {
     "id": 3806,
     "username": "alexs",
     "avatar_template": "/user_avatar/community.monzo.com/alexs/{size}/2443_1.png",
     "count": 3,
     "name": "Alex Sherwood"
    },
    {
     "id": 667,
     "username": "duncang",
     "avatar_template": "https://avatars.discourse.org/v2/letter/d/cc9497/{size}.png",
     "count": 1,
     "name": "Duncan"
    },
    {
     "id": 4424,
     "username": "NekoZombieRaw",
     "avatar_template": "/user_avatar/community.monzo.com/nekozombieraw/{size}/2857_1.png",
     "count": 1,
     "name": ""
    },
    {
     "id": 9582,
     "username": "ddevil",
     "avatar_template": "/user_avatar/community.monzo.com/ddevil/{size}/5172_1.png",
     "count": 1,
     "name": "Andrei Costin"
    }
   ],
   "badges": [
    {
     "id": 11046,
     "granted_at": "2016-12-31T00:11:45.559Z",
     "count": 1,
     "badge_id": 2,
     "user_id": 513,
     "granted_by_id": -1
    },
    {
     "id": 1344,
     "granted_at": "2016-01-23T13:45:26.867Z",
     "count": 1,
     "badge_id": 101,
     "user_id": 513,
     "granted_by_id": -1
    },
    {
     "id": 11945,
     "granted_at": "2017-01-23T13:45:26.841Z",
     "count": 1,
     "badge_id": 24,
     "user_id": 513,
     "granted_by_id": -1
    },
    {
     "id": 13303,
     "granted_at": "2017-02-26T13:17:13.406Z",
     "count": 1,
     "post_id": 28986,
     "post_number": 6,
     "badge_id": 14,
     "user_id": 513,
     "granted_by_id": -1,
     "topic_id": 7663
    },
    {
     "id": 10987,
     "granted_at": "2016-12-26T10:43:40.777Z",
     "count": 1,
     "post_id": 24038,
     "post_number": 11,
     "badge_id": 15,
     "user_id": 513,
     "granted_by_id": -1,
     "topic_id": 6999
    },
    {
     "id": 13725,
     "granted_at": "2017-03-06T19:25:33.229Z",
     "count": 1,
     "post_id": 30061,
     "post_number": 439,
     "badge_id": 42,
     "user_id": 513,
     "granted_by_id": -1,
     "topic_id": 5861
    }
   ]
  }
 }
}