{
 "user_badges": [
  {
   "id": 6095,
   "granted_at": "2016-06-29T10:52:18.350Z",
   "count": 1,
   "badge_id": 1,
   "user_id": 2883,
   "granted_by_id": -1
  },
  {
   "id": 18656,
   "granted_at": "2017-06-15T20:42:27.750Z",
   "count": 1,
   "badge_id": 24,
   "user_id": 2883,
   "granted_by_id": -1
  },
  {
   "id": 6105,
   "granted_at": "2016-06-29T12:43:32.625Z",
   "count": 1,
   "post_id": 9395,
   "post_number": 6,
   "badge_id": 41,
   "user_id": 2883,
   "granted_by_id": -1,
   "topic_id": 3932
  }
 ],
 "badges": [
  {
   "id": 1,
   "name": "Basic",
   "description": "<a href=\"https://meta.discourse.org/t/what-do-user-trust-levels-do/4924/4\">Granted</a> all essential community functions",
   "grant_count": 6608,
   "allow_title": false,
   "multiple_grant": false,
   "icon": "fa-user",
   "image": null,
   "listable": true,
   "enabled": true,
   "badge_grouping_id": 4,
   "system": true,
   "slug": "basic",
   "badge_type_id": 3
  },
  {
   "id": 24,
   "name": "Anniversary",
   "description": "Active member for a year, posted at least once",
   "grant_count": 1305,
   "allow_title": false,
   "multiple_grant": true,
   "icon": "fa-clock-o",
   "image": null,
   "listable": true,
   "enabled": true,
   "badge_grouping_id": 2,
   "system": true,
   "slug": "anniversary",
   "badge_type_id": 2
  },
  {
   "id": 41,
   "name": "First Emoji",
   "description": "Used an Emoji in a Post",
   "grant_count": 1849,
   "allow_title": false,
   "multiple_grant": false,
   "icon": "fa-certificate",
   "image": null,
   "listable": true,
   "enabled": true,
   "badge_grouping_id": 1,
   "system": true,
   "slug": "first-emoji",
   "badge_type_id": 3
  }
 ],
 "badge_types": [
  {
   "id": 3,
   "name": "Bronze",
   "sort_order": 7
  },
  {
   "id": 2,
   "name": "Silver",
   "sort_order": 8
  }
 ],
 "users": [
  {
   "id": 2883,
   "username": "Maxi",
   "avatar_template": "https://avatars.discourse.org/v2/letter/m/bc79bd/{size}.png",
   "name": "Max Abendstern",
   "moderator": false,
   "admin": false
  },
  {
   "id": -1,
   "username": "system",
   "avatar_template": "/user_avatar/community.monzo.com/system/{size}/1_1.png",
   "name": "system",
   "moderator": true,
   "admin": true
  }
 ],
 "topics": [
  {
   "id": 3932,
   "title": "Easy workaround for online merchants that decline prepaid cards",
   "fancy_title": "Easy workaround for online merchants that decline prepaid cards",
   "slug": "easy-workaround-for-online-merchants-that-decline-prepaid-cards",
   "posts_count": 7
  }
 ],
 "user": {
  "id": 2883,
  "username": "Maxi",
  "avatar_template": "https://avatars.discourse.org/v2/letter/m/bc79bd/{size}.png",
  "name": "Max Abendstern",
  "last_posted_at": "2016-07-10T13:48:02.855Z",
  "last_seen_at": "2017-09-21T11:04:14.148Z",
  "created_at": "2016-06-15T08:23:33.930Z",
  "can_edit": false,
  "can_edit_username": false,
  "can_edit_email": false,
  "can_edit_name": false,
  "can_send_private_messages": false,
  "can_send_private_message_to_user": false,
  "trust_level": 1,
  "moderator": false,
  "admin": false,
  "title": null,
  "uploaded_avatar_id": null,
  "badge_count": 5,
  "custom_fields": null,
  "pending_count": 0,
  "profile_view_count": 16,
  "primary_group_name": null,
  "primary_group_flair_url": null,
  "primary_group_flair_bg_color": null,
  "primary_group_flair_color": null,
  "invited_by": null,
  "groups": [
   {
    "id": 10,
    "automatic": true,
    "name": "trust_level_0",
    "display_name": "trust_level_0",
    "user_count": 23117,
    "mentionable_level": 0,
    "messageable_level": 0,
    "visibility_level": 0,
    "automatic_membership_email_domains": null,
    "automatic_membership_retroactive": false,
    "primary_group": false,
    "title": null,
    "grant_trust_level": null,
    "has_messages": false,
    "flair_url": null,
    "flair_bg_color": null,
    "flair_color": null,
    "bio_raw": null,
    "bio_cooked": null,
    "public_admission": false,
    "public_exit": false,
    "allow_membership_requests": false,
    "full_name": null,
    "default_notification_level": 3,
    "membership_request_template": null
   },
   {
    "id": 11,
    "automatic": true,
    "name": "trust_level_1",
    "display_name": "trust_level_1",
    "user_count": 6609,
    "mentionable_level": 0,
    "messageable_level": 0,
    "visibility_level": 0,
    "automatic_membership_email_domains": null,
    "automatic_membership_retroactive": false,
    "primary_group": false,
    "title": null,
    "grant_trust_level": null,
    "has_messages": false,
    "flair_url": null,
    "flair_bg_color": null,
    "flair_color": null,
    "bio_raw": null,
    "bio_cooked": null,
    "public_admission": false,
    "public_exit": false,
    "allow_membership_requests": false,
    "full_name": null,
    "default_notification_level": 3,
    "membership_request_template": null
   }
  ],
  "group_users": [
   {
    "group_id": 10,
    "user_id": 2883,
    "notification_level": 2
   },
   {
    "group_id": 11,
    "user_id": 2883,
    "notification_level": 2
   }
  ],
  "featured_user_badge_ids": [
   6095,
   18656,
   6105
  ],
  "card_badge": null
 },
 "summary": {
  "topics": [
   {
    "id": 3932,
    "created_at": "2016-06-22T11:43:00.925Z",
    "fancy_title": "Easy workaround for online merchants that decline prepaid cards",
    "slug": "easy-workaround-for-online-merchants-that-decline-prepaid-cards",
    "like_count": 18
   },
   {
    "id": 3865,
    "created_at": "2016-06-17T21:16:25.346Z",
    "fancy_title": "Splitting Cash Withdrawals into Several Categories 6",
    "slug": "splitting-cash-withdrawals-into-several-categories-6",
    "like_count": 1
   }
  ],
  "badges": [
   {
    "id": 1,
    "name": "Basic",
    "description": "<a href=\"https://meta.discourse.org/t/what-do-user-trust-levels-do/4924/4\">Granted</a> all essential community functions",
    "grant_count": 6608,
    "allow_title": false,
    "multiple_grant": false,
    "icon": "fa-user",
    "image": null,
    "listable": true,
    "enabled": true,
    "badge_grouping_id": 4,
    "system": true,
    "slug": "basic",
    "badge_type_id": 3
   },
   {
    "id": 24,
    "name": "Anniversary",
    "description": "Active member for a year, posted at least once",
    "grant_count": 1305,
    "allow_title": false,
    "multiple_grant": true,
    "icon": "fa-clock-o",
    "image": null,
    "listable": true,
    "enabled": true,
    "badge_grouping_id": 2,
    "system": true,
    "slug": "anniversary",
    "badge_type_id": 2
   },
   {
    "id": 41,
    "name": "First Emoji",
    "description": "Used an Emoji in a Post",
    "grant_count": 1849,
    "allow_title": false,
    "multiple_grant": false,
    "icon": "fa-certificate",
    "image": null,
    "listable": true,
    "enabled": true,
    "badge_grouping_id": 1,
    "system": true,
    "slug": "first-emoji",
    "badge_type_id": 3
   },
   {
    "id": 5,
    "name": "Welcome",
    "description": "Received a like",
    "grant_count": 3576,
    "allow_title": false,
    "multiple_grant": false,
    "icon": "fa-certificate",
    "image": null,
    "listable": true,
    "enabled": true,
    "badge_grouping_id": 2,
    "system": true,
    "slug": "welcome",
    "badge_type_id": 3
   },
   {
    "id": 11,
    "name": "First Like",
    "description": "Liked a post",
    "grant_count": 3980,
    "allow_title": false,
    "multiple_grant": false,
    "icon": "fa-certificate",
    "image": null,
    "listable": true,
    "enabled": true,
    "badge_grouping_id": 1,
    "system": true,
    "slug": "first-like",
    "badge_type_id": 3
   }
  ],
  "badge_types": [
   {
    "id": 3,
    "name": "Bronze",
    "sort_order": 7
   },
   {
    "id": 2,
    "name": "Silver",
    "sort_order": 8
   }
  ],
  "users": [
   {
    "id": 2883,
    "username": "Maxi",
    "avatar_template": "https://avatars.discourse.org/v2/letter/m/bc79bd/{size}.png",
    "name": "Max Abendstern",
    "moderator": false,
    "admin": false
   },
   {
    "id": -1,
    "username": "system",
    "avatar_template": "/user_avatar/community.monzo.com/system/{size}/1_1.png",
    "name": "system",
    "moderator": true,
    "admin": true
   }
  ],
  "user_summary": {
   "likes_given": 4,
   "likes_received": 6,
   "posts_read_count": 375,
   "days_visited": 13,
   "topic_count": 0,
   "post_count": 3,
   "time_read": "2h",
   "solved_count": 0,
   "topic_ids": [],
   "replies": [
    {
     "post_number": 6,
     "like_count": 6,
     "created_at": "2016-06-29T12:43:32.459Z",
     "topic_id": 3932
    },
    {
     "post_number": 3,
     "like_count": 0,
     "created_at": "2016-06-29T10:48:17.221Z",
     "topic_id": 3932
    },
    {
     "post_number": 5,
     "like_count": 0,
     "created_at": "2016-07-10T13:48:02.855Z",
     "topic_id": 3865
    }
   ],
   "links": [],
   "most_liked_by_users": [
    {
     "id": 158,
     "username": "billinghamj",
     "avatar_template": "/user_avatar/community.monzo.com/billinghamj/{size}/131_1.png",
     "count": 1,
     "name": "James Billingham"
    },
    {
     "id": 246,
     "username": "iansilversides",
     "avatar_template": "https://avatars.discourse.org/v2/letter/i/258eb7/{size}.png",
     "count": 1,
     "name": ""
    },
    {
     "id": 427,
     "username": "RichardR",
     "avatar_template": "/user_avatar/community.monzo.com/richardr/{size}/7541_1.png",
     "count": 1,
     "name": "Richard Raybould"
    },
    {
     "id": 1417,
     "username": "Bob",
     "avatar_template": "/user_avatar/community.monzo.com/bob/{size}/6528_1.png",
     "count": 1,
     "name": "Bob Fulton"
    },
    {
     "id": 1457,
     "username": "tnwhitwell",
     "avatar_template": "/user_avatar/community.monzo.com/tnwhitwell/{size}/1009_1.png",
     "count": 1,
     "name": "Tom Whitwell"
    },
    {
     "id": 2967,
     "username": "imagine",
     "avatar_template": "/user_avatar/community.monzo.com/imagine/{size}/1955_1.png",
     "count": 1,
     "name": "Jack Worton"
    }
   ],
   "most_liked_users": [
    {
     "id": 158,
     "username": "billinghamj",
     "avatar_template": "/user_avatar/community.monzo.com/billinghamj/{size}/131_1.png",
     "count": 1,
     "name": "James Billingham"
    },
    {
     "id": 1253,
     "username": "DrPlokta",
     "avatar_template": "https://avatars.discourse.org/v2/letter/d/9de053/{size}.png",
     "count": 1,
     "name": "Mike Scott"
    },
    {
     "id": 2967,
     "username": "imagine",
     "avatar_template": "/user_avatar/community.monzo.com/imagine/{size}/1955_1.png",
     "count": 1,
     "name": "Jack Worton"
    },
    {
     "id": 6529,
     "username": "watbe",
     "avatar_template": "/user_avatar/community.monzo.com/watbe/{size}/4015_1.png",
     "count": 1,
     "name": "Wayne"
    }
   ],
   "most_replied_to_users": [
    {
     "id": 2967,
     "username": "imagine",
     "avatar_template": "/user_avatar/community.monzo.com/imagine/{size}/1955_1.png",
     "count": 1,
     "name": "Jack Worton"
    }
   ],
   "badges": [
    {
     "id": 6095,
     "granted_at": "2016-06-29T10:52:18.350Z",
     "count": 1,
     "badge_id": 1,
     "user_id": 2883,
     "granted_by_id": -1
    },
    {
     "id": 18656,
     "granted_at": "2017-06-15T20:42:27.750Z",
     "count": 1,
     "badge_id": 24,
     "user_id": 2883,
     "granted_by_id": -1
    },
    {
     "id": 6105,
     "granted_at": "2016-06-29T12:43:32.625Z",
     "count": 1,
     "post_id": 9395,
     "post_number": 6,
     "badge_id": 41,
     "user_id": 2883,
     "granted_by_id": -1,
     "topic_id": 3932
    },
    {
     "id": 6106,
     "granted_at": "2016-06-29T12:47:20.227Z",
     "count": 1,
     "post_id": 9395,
     "post_number": 6,
     "badge_id": 5,
     "user_id": 2883,
     "granted_by_id": -1,
     "topic_id": 3932
    },
    {
     "id": 6094,
     "granted_at": "2016-06-29T10:48:24.431Z",
     "count": 1,
     "post_id": 9024,
     "post_number": 1,
     "badge_id": 11,
     "user_id": 2883,
     "granted_by_id": -1,
     "topic_id": 3932
    }
   ]
  }
 }
}