{
 "user_badges": [
  {
   "id": 25997,
   "granted_at": "2017-09-13T21:53:41.815Z",
   "count": 1,
   "badge_id": 1,
   "user_id": 4042,
   "granted_by_id": -1
  }
 ],
 "badges": [
  {
   "id": 1,
   "name": "Basic",
   "description": "<a href=\"https://meta.discourse.org/t/what-do-user-trust-levels-do/4924/4\">Granted</a> all essential community functions",
   "grant_count": 6608,
   "allow_title": false,
   "multiple_grant": false,
   "icon": "fa-user",
   "image": null,
   "listable": true,
   "enabled": true,
   "badge_grouping_id": 4,
   "system": true,
   "slug": "basic",
   "badge_type_id": 3
  }
 ],
 "badge_types": [
  {
   "id": 3,
   "name": "Bronze",
   "sort_order": 7
  }
 ],
 "users": [
  {
   "id": 4042,
   "username": "mourlos",
   "avatar_template": "https://avatars.discourse.org/v2/letter/m/6de8d8/{size}.png",
   "name": "Harry Papadopoulos",
   "moderator": false,
   "admin": false
  },
  {
   "id": -1,
   "username": "system",
   "avatar_template": "/user_avatar/community.monzo.com/system/{size}/1_1.png",
   "name": "system",
   "moderator": true,
   "admin": true
  }
 ],
 "user": {
  "id": 4042,
  "username": "mourlos",
  "avatar_template": "https://avatars.discourse.org/v2/letter/m/6de8d8/{size}.png",
  "name": "Harry Papadopoulos",
  "last_posted_at": null,
  "last_seen_at": "2017-09-26T22:30:38.112Z",
  "created_at": "2016-08-17T19:07:00.792Z",
  "can_edit": false,
  "can_edit_username": false,
  "can_edit_email": false,
  "can_edit_name": false,
  "can_send_private_messages": false,
  "can_send_private_message_to_user": false,
  "trust_level": 1,
  "moderator": false,
  "admin": false,
  "title": null,
  "uploaded_avatar_id": null,
  "badge_count": 1,
  "custom_fields": null,
  "pending_count": 0,
  "profile_view_count": 0,
  "primary_group_name": null,
  "primary_group_flair_url": null,
  "primary_group_flair_bg_color": null,
  "primary_group_flair_color": null,
  "invited_by": null,
  "groups": [
   {
    "id": 10,
    "automatic": true,
    "name": "trust_level_0",
    "display_name": "trust_level_0",
    "user_count": 23117,
    "mentionable_level": 0,
    "messageable_level": 0,
    "visibility_level": 0,
    "automatic_membership_email_domains": null,
    "automatic_membership_retroactive": false,
    "primary_group": false,
    "title": null,
    "grant_trust_level": null,
    "has_messages": false,
    "flair_url": null,
    "flair_bg_color": null,
    "flair_color": null,
    "bio_raw": null,
    "bio_cooked": null,
    "public_admission": false,
    "public_exit": false,
    "allow_membership_requests": false,
    "full_name": null,
    "default_notification_level": 3,
    "membership_request_template": null
   },
   {
    "id": 11,
    "automatic": true,
    "name": "trust_level_1",
    "display_name": "trust_level_1",
    "user_count": 6609,
    "mentionable_level": 0,
    "messageable_level": 0,
    "visibility_level": 0,
    "automatic_membership_email_domains": null,
    "automatic_membership_retroactive": false,
    "primary_group": false,
    "title": null,
    "grant_trust_level": null,
    "has_messages": false,
    "flair_url": null,
    "flair_bg_color": null,
    "flair_color": null,
    "bio_raw": null,
    "bio_cooked": null,
    "public_admission": false,
    "public_exit": false,
    "allow_membership_requests": false,
    "full_name": null,
    "default_notification_level": 3,
    "membership_request_template": null
   }
  ],
  "group_users": [
   {
    "group_id": 10,
    "user_id": 4042,
    "notification_level": 2
   },
   {
    "group_id": 11,
    "user_id": 4042,
    "notification_level": 3
   }
  ],
  "featured_user_badge_ids": [
   25997
  ],
  "card_badge": null
 },
 "summary": {
  "topics": [],
  "badges": [
   {
    "id": 1,
    "name": "Basic",
    "description": "<a href=\"https://meta.discourse.org/t/what-do-user-trust-levels-do/4924/4\">Granted</a> all essential community functions",
    "grant_count": 6608,
    "allow_title": false,
    "multiple_grant": false,
    "icon": "fa-user",
    "image": null,
    "listable": true,
    "enabled": true,
    "badge_grouping_id": 4,
    "system": true,
    "slug": "basic",
    "badge_type_id": 3
   }
  ],
  "badge_types": [
   {
    "id": 3,
    "name": "Bronze",
    "sort_order": 7
   }
  ],
  "users": [
   {
    "id": 4042,
    "username": "mourlos",
    "avatar_template": "https://avatars.discourse.org/v2/letter/m/6de8d8/{size}.png",
    "name": "Harry Papadopoulos",
    "moderator": false,
    "admin": false
   },
   {
    "id": -1,
    "username": "system",
    "avatar_template": "/user_avatar/community.monzo.com/system/{size}/1_1.png",
    "name": "system",
    "moderator": true,
    "admin": true
   }
  ],
  "user_summary": {
   "likes_given": 0,
   "likes_received": 0,
   "posts_read_count": 214,
   "days_visited": 8,
   "topic_count": 0,
   "post_count": 0,
   "time_read": "1h",
   "solved_count": 0,
   "topic_ids": [],
   "replies": [],
   "links": [],
   "most_liked_by_users": [],
   "most_liked_users": [],
   "most_replied_to_users": [],
   "badges": [
    {
     "id": 25997,
     "granted_at": "2017-09-13T21:53:41.815Z",
     "count": 1,
     "badge_id": 1,
     "user_id": 4042,
     "granted_by_id": -1
    }
   ]
  }
 }
}