{
 "user_badges": [
  {
   "id": 26535,
   "granted_at": "2017-09-14T19:33:35.378Z",
   "count": 1,
   "badge_id": 1,
   "user_id": 20951,
   "granted_by_id": -1
  },
  {
   "id": 25967,
   "granted_at": "2017-09-13T21:14:19.405Z",
   "count": 1,
   "badge_id": 10,
   "user_id": 20951,
   "granted_by_id": -1
  },
  {
   "id": 25955,
   "granted_at": "2017-09-13T21:02:50.532Z",
   "count": 1,
   "post_id": 71147,
   "post_number": 3,
   "badge_id": 11,
   "user_id": 20951,
   "granted_by_id": -1,
   "topic_id": 17518
  }
 ],
 "badges": [
  {
   "id": 1,
   "name": "Basic",
   "description": "<a href=\"https://meta.discourse.org/t/what-do-user-trust-levels-do/4924/4\">Granted</a> all essential community functions",
   "grant_count": 6608,
   "allow_title": false,
   "multiple_grant": false,
   "icon": "fa-user",
   "image": null,
   "listable": true,
   "enabled": true,
   "badge_grouping_id": 4,
   "system": true,
   "slug": "basic",
   "badge_type_id": 3
  },
  {
   "id": 10,
   "name": "Editor",
   "description": "First post edit",
   "grant_count": 1307,
   "allow_title": false,
   "multiple_grant": false,
   "icon": "fa-certificate",
   "image": null,
   "listable": true,
   "enabled": true,
   "badge_grouping_id": 1,
   "system": true,
   "slug": "editor",
   "badge_type_id": 3
  },
  {
   "id": 11,
   "name": "First Like",
   "description": "Liked a post",
   "grant_count": 3980,
   "allow_title": false,
   "multiple_grant": false,
   "icon": "fa-certificate",
   "image": null,
   "listable": true,
   "enabled": true,
   "badge_grouping_id": 1,
   "system": true,
   "slug": "first-like",
   "badge_type_id": 3
  }
 ],
 "badge_types": [
  {
   "id": 3,
   "name": "Bronze",
   "sort_order": 7
  }
 ],
 "users": [
  {
   "id": 20951,
   "username": "plockhart",
   "avatar_template": "https://avatars.discourse.org/v2/letter/p/ee7513/{size}.png",
   "name": "Peter Lockhart",
   "moderator": false,
   "admin": false
  },
  {
   "id": -1,
   "username": "system",
   "avatar_template": "/user_avatar/community.monzo.com/system/{size}/1_1.png",
   "name": "system",
   "moderator": true,
   "admin": true
  }
 ],
 "topics": [
  {
   "id": 17518,
   "title": "ATM Fees Abroad: Asking the Monzo Community to decide pricing",
   "fancy_title": "ATM Fees Abroad: Asking the Monzo Community to decide pricing",
   "slug": "atm-fees-abroad-asking-the-monzo-community-to-decide-pricing",
   "posts_count": 1456
  }
 ],
 "user": {
  "id": 20951,
  "username": "plockhart",
  "avatar_template": "https://avatars.discourse.org/v2/letter/p/ee7513/{size}.png",
  "name": "Peter Lockhart",
  "last_posted_at": "2017-09-13T21:14:19.405Z",
  "last_seen_at": "2017-09-14T20:20:26.909Z",
  "created_at": "2017-09-13T21:01:24.484Z",
  "can_edit": false,
  "can_edit_username": false,
  "can_edit_email": false,
  "can_edit_name": false,
  "can_send_private_messages": false,
  "can_send_private_message_to_user": false,
  "trust_level": 1,
  "moderator": false,
  "admin": false,
  "title": null,
  "uploaded_avatar_id": null,
  "badge_count": 3,
  "custom_fields": null,
  "pending_count": 0,
  "profile_view_count": 1,
  "primary_group_name": null,
  "primary_group_flair_url": null,
  "primary_group_flair_bg_color": null,
  "primary_group_flair_color": null,
  "invited_by": null,
  "groups": [
   {
    "id": 10,
    "automatic": true,
    "name": "trust_level_0",
    "display_name": "trust_level_0",
    "user_count": 23117,
    "mentionable_level": 0,
    "messageable_level": 0,
    "visibility_level": 0,
    "automatic_membership_email_domains": null,
    "automatic_membership_retroactive": false,
    "primary_group": false,
    "title": null,
    "grant_trust_level": null,
    "has_messages": false,
    "flair_url": null,
    "flair_bg_color": null,
    "flair_color": null,
    "bio_raw": null,
    "bio_cooked": null,
    "public_admission": false,
    "public_exit": false,
    "allow_membership_requests": false,
    "full_name": null,
    "default_notification_level": 3,
    "membership_request_template": null
   },
   {
    "id": 11,
    "automatic": true,
    "name": "trust_level_1",
    "display_name": "trust_level_1",
    "user_count": 6609,
    "mentionable_level": 0,
    "messageable_level": 0,
    "visibility_level": 0,
    "automatic_membership_email_domains": null,
    "automatic_membership_retroactive": false,
    "primary_group": false,
    "title": null,
    "grant_trust_level": null,
    "has_messages": false,
    "flair_url": null,
    "flair_bg_color": null,
    "flair_color": null,
    "bio_raw": null,
    "bio_cooked": null,
    "public_admission": false,
    "public_exit": false,
    "allow_membership_requests": false,
    "full_name": null,
    "default_notification_level": 3,
    "membership_request_template": null
   }
  ],
  "group_users": [
   {
    "group_id": 10,
    "user_id": 20951,
    "notification_level": 3
   },
   {
    "group_id": 11,
    "user_id": 20951,
    "notification_level": 3
   }
  ],
  "featured_user_badge_ids": [
   26535,
   25967,
   25955
  ],
  "card_badge": null
 },
 "summary": {
  "topics": [
   {
    "id": 17518,
    "created_at": "2017-09-13T11:29:54.128Z",
    "fancy_title": "ATM Fees Abroad: Asking the Monzo Community to decide pricing",
    "slug": "atm-fees-abroad-asking-the-monzo-community-to-decide-pricing",
    "like_count": 2956
   }
  ],
  "badges": [
   {
    "id": 1,
    "name": "Basic",
    "description": "<a href=\"https://meta.discourse.org/t/what-do-user-trust-levels-do/4924/4\">Granted</a> all essential community functions",
    "grant_count": 6608,
    "allow_title": false,
    "multiple_grant": false,
    "icon": "fa-user",
    "image": null,
    "listable": true,
    "enabled": true,
    "badge_grouping_id": 4,
    "system": true,
    "slug": "basic",
    "badge_type_id": 3
   },
   {
    "id": 10,
    "name": "Editor",
    "description": "First post edit",
    "grant_count": 1307,
    "allow_title": false,
    "multiple_grant": false,
    "icon": "fa-certificate",
    "image": null,
    "listable": true,
    "enabled": true,
    "badge_grouping_id": 1,
    "system": true,
    "slug": "editor",
    "badge_type_id": 3
   },
   {
    "id": 11,
    "name": "First Like",
    "description": "Liked a post",
    "grant_count": 3980,
    "allow_title": false,
    "multiple_grant": false,
    "icon": "fa-certificate",
    "image": null,
    "listable": true,
    "enabled": true,
    "badge_grouping_id": 1,
    "system": true,
    "slug": "first-like",
    "badge_type_id": 3
   }
  ],
  "badge_types": [
   {
    "id": 3,
    "name": "Bronze",
    "sort_order": 7
   }
  ],
  "users": [
   {
    "id": 20951,
    "username": "plockhart",
    "avatar_template": "https://avatars.discourse.org/v2/letter/p/ee7513/{size}.png",
    "name": "Peter Lockhart",
    "moderator": false,
    "admin": false
   },
   {
    "id": -1,
    "username": "system",
    "avatar_template": "/user_avatar/community.monzo.com/system/{size}/1_1.png",
    "name": "system",
    "moderator": true,
    "admin": true
   }
  ],
  "user_summary": {
   "likes_given": 6,
   "likes_received": 0,
   "posts_read_count": 124,
   "days_visited": 2,
   "topic_count": 0,
   "post_count": 1,
   "time_read": "19m",
   "solved_count": 0,
   "topic_ids": [],
   "replies": [
    {
     "post_number": 720,
     "like_count": 0,
     "created_at": "2017-09-13T21:14:19.405Z",
     "topic_id": 17518
    }
   ],
   "links": [],
   "most_liked_by_users": [],
   "most_liked_users": [
    {
     "id": 3515,
     "username": "Nightpaws",
     "avatar_template": "/user_avatar/community.monzo.com/nightpaws/{size}/2271_1.png",
     "count": 1,
     "name": ""
    },
    {
     "id": 5777,
     "username": "tudor",
     "avatar_template": "https://avatars.discourse.org/v2/letter/t/13edae/{size}.png",
     "count": 1,
     "name": "Tudor"
    },
    {
     "id": 5934,
     "username": "oliverouten",
     "avatar_template": "https://avatars.discourse.org/v2/letter/o/46a35a/{size}.png",
     "count": 1,
     "name": "Oliver Outen"
    },
    {
     "id": 10089,
     "username": "alisufyan",
     "avatar_template": "/user_avatar/community.monzo.com/alisufyan/{size}/9913_1.png",
     "count": 1,
     "name": "Ali Sufyan"
    },
    {
     "id": 18322,
     "username": "Michalis",
     "avatar_template": "https://avatars.discourse.org/v2/letter/m/e19b73/{size}.png",
     "count": 1,
     "name": "Michalis Panayiotou"
    },
    {
     "id": 18325,
     "username": "lonwi",
     "avatar_template": "/user_avatar/community.monzo.com/lonwi/{size}/9952_1.png",
     "count": 1,
     "name": "Wojciech Bubolka"
    }
   ],
   "most_replied_to_users": [],
   "badges": [
    {
     "id": 26535,
     "granted_at": "2017-09-14T19:33:35.378Z",
     "count": 1,
     "badge_id": 1,
     "user_id": 20951,
     "granted_by_id": -1
    },
    {
     "id": 25967,
     "granted_at": "2017-09-13T21:14:19.405Z",
     "count": 1,
     "badge_id": 10,
     "user_id": 20951,
     "granted_by_id": -1
    },
    {
     "id": 25955,
     "granted_at": "2017-09-13T21:02:50.532Z",
     "count": 1,
     "post_id": 71147,
     "post_number": 3,
     "badge_id": 11,
     "user_id": 20951,
     "granted_by_id": -1,
     "topic_id": 17518
    }
   ]
  }
 }
}