{
 "user_badges": [
  {
   "id": 4633,
   "granted_at": "2016-05-13T22:36:29.692Z",
   "count": 1,
   "badge_id": 1,
   "user_id": 1763,
   "granted_by_id": -1
  },
  {
   "id": 15598,
   "granted_at": "2017-04-18T16:55:19.369Z",
   "count": 1,
   "badge_id": 24,
   "user_id": 1763,
   "granted_by_id": -1
  },
  {
   "id": 5812,
   "granted_at": "2016-06-16T08:23:02.697Z",
   "count": 1,
   "post_id": 8308,
   "post_number": 12,
   "badge_id": 11,
   "user_id": 1763,
   "granted_by_id": -1,
   "topic_id": 3632
  }
 ],
 "badges": [
  {
   "id": 1,
   "name": "Basic",
   "description": "<a href=\"https://meta.discourse.org/t/what-do-user-trust-levels-do/4924/4\">Granted</a> all essential community functions",
   "grant_count": 6608,
   "allow_title": false,
   "multiple_grant": false,
   "icon": "fa-user",
   "image": null,
   "listable": true,
   "enabled": true,
   "badge_grouping_id": 4,
   "system": true,
   "slug": "basic",
   "badge_type_id": 3
  },
  {
   "id": 24,
   "name": "Anniversary",
   "description": "Active member for a year, posted at least once",
   "grant_count": 1305,
   "allow_title": false,
   "multiple_grant": true,
   "icon": "fa-clock-o",
   "image": null,
   "listable": true,
   "enabled": true,
   "badge_grouping_id": 2,
   "system": true,
   "slug": "anniversary",
   "badge_type_id": 2
  },
  {
   "id": 11,
   "name": "First Like",
   "description": "Liked a post",
   "grant_count": 3980,
   "allow_title": false,
   "multiple_grant": false,
   "icon": "fa-certificate",
   "image": null,
   "listable": true,
   "enabled": true,
   "badge_grouping_id": 1,
   "system": true,
   "slug": "first-like",
   "badge_type_id": 3
  }
 ],
 "badge_types": [
  {
   "id": 3,
   "name": "Bronze",
   "sort_order": 7
  },
  {
   "id": 2,
   "name": "Silver",
   "sort_order": 8
  }
 ],
 "users": [
  {
   "id": 1763,
   "username": "triplesixes",
   "avatar_template": "https://avatars.discourse.org/v2/letter/t/977dab/{size}.png",
   "name": "R",
   "moderator": false,
   "admin": false
  },
  {
   "id": -1,
   "username": "system",
   "avatar_template": "/user_avatar/community.monzo.com/system/{size}/1_1.png",
   "name": "system",
   "moderator": true,
   "admin": true
  }
 ],
 "topics": [
  {
   "id": 3632,
   "title": "Goodbye Mondo, Hello M-- (we're changing our name!)",
   "fancy_title": "Goodbye Mondo, Hello M&ndash; (we&rsquo;re changing our name!)",
   "slug": "goodbye-mondo-hello-m-were-changing-our-name",
   "posts_count": 158
  }
 ],
 "user": {
  "id": 1763,
  "username": "triplesixes",
  "avatar_template": "https://avatars.discourse.org/v2/letter/t/977dab/{size}.png",
  "name": "R",
  "last_posted_at": "2016-07-11T05:24:04.790Z",
  "last_seen_at": "2017-09-13T12:45:29.742Z",
  "created_at": "2016-04-18T16:55:19.369Z",
  "can_edit": false,
  "can_edit_username": false,
  "can_edit_email": false,
  "can_edit_name": false,
  "can_send_private_messages": false,
  "can_send_private_message_to_user": false,
  "trust_level": 1,
  "moderator": false,
  "admin": false,
  "title": null,
  "uploaded_avatar_id": null,
  "badge_count": 3,
  "custom_fields": null,
  "pending_count": 0,
  "profile_view_count": 1,
  "primary_group_name": null,
  "primary_group_flair_url": null,
  "primary_group_flair_bg_color": null,
  "primary_group_flair_color": null,
  "invited_by": null,
  "groups": [
   {
    "id": 10,
    "automatic": true,
    "name": "trust_level_0",
    "display_name": "trust_level_0",
    "user_count": 23117,
    "mentionable_level": 0,
    "messageable_level": 0,
    "visibility_level": 0,
    "automatic_membership_email_domains": null,
    "automatic_membership_retroactive": false,
    "primary_group": false,
    "title": null,
    "grant_trust_level": null,
    "has_messages": false,
    "flair_url": null,
    "flair_bg_color": null,
    "flair_color": null,
    "bio_raw": null,
    "bio_cooked": null,
    "public_admission": false,
    "public_exit": false,
    "allow_membership_requests": false,
    "full_name": null,
    "default_notification_level": 3,
    "membership_request_template": null
   },
   {
    "id": 11,
    "automatic": true,
    "name": "trust_level_1",
    "display_name": "trust_level_1",
    "user_count": 6609,
    "mentionable_level": 0,
    "messageable_level": 0,
    "visibility_level": 0,
    "automatic_membership_email_domains": null,
    "automatic_membership_retroactive": false,
    "primary_group": false,
    "title": null,
    "grant_trust_level": null,
    "has_messages": false,
    "flair_url": null,
    "flair_bg_color": null,
    "flair_color": null,
    "bio_raw": null,
    "bio_cooked": null,
    "public_admission": false,
    "public_exit": false,
    "allow_membership_requests": false,
    "full_name": null,
    "default_notification_level": 3,
    "membership_request_template": null
   }
  ],
  "group_users": [
   {
    "group_id": 10,
    "user_id": 1763,
    "notification_level": 2
   },
   {
    "group_id": 11,
    "user_id": 1763,
    "notification_level": 2
   }
  ],
  "featured_user_badge_ids": [
   4633,
   15598,
   5812
  ],
  "card_badge": null
 },
 "summary": {
  "topics": [
   {
    "id": 3632,
    "title": "Goodbye Mondo, Hello M-- (we're changing our name!)",
    "fancy_title": "Goodbye Mondo, Hello M&ndash; (we&rsquo;re changing our name!)",
    "slug": "goodbye-mondo-hello-m-were-changing-our-name",
    "posts_count": 158
   }
  ],
  "badges": [
   {
    "id": 1,
    "name": "Basic",
    "description": "<a href=\"https://meta.discourse.org/t/what-do-user-trust-levels-do/4924/4\">Granted</a> all essential community functions",
    "grant_count": 6608,
    "allow_title": false,
    "multiple_grant": false,
    "icon": "fa-user",
    "image": null,
    "listable": true,
    "enabled": true,
    "badge_grouping_id": 4,
    "system": true,
    "slug": "basic",
    "badge_type_id": 3
   },
   {
    "id": 24,
    "name": "Anniversary",
    "description": "Active member for a year, posted at least once",
    "grant_count": 1305,
    "allow_title": false,
    "multiple_grant": true,
    "icon": "fa-clock-o",
    "image": null,
    "listable": true,
    "enabled": true,
    "badge_grouping_id": 2,
    "system": true,
    "slug": "anniversary",
    "badge_type_id": 2
   },
   {
    "id": 11,
    "name": "First Like",
    "description": "Liked a post",
    "grant_count": 3980,
    "allow_title": false,
    "multiple_grant": false,
    "icon": "fa-certificate",
    "image": null,
    "listable": true,
    "enabled": true,
    "badge_grouping_id": 1,
    "system": true,
    "slug": "first-like",
    "badge_type_id": 3
   }
  ],
  "badge_types": [
   {
    "id": 3,
    "name": "Bronze",
    "sort_order": 7
   },
   {
    "id": 2,
    "name": "Silver",
    "sort_order": 8
   }
  ],
  "users": [
   {
    "id": 1763,
    "username": "triplesixes",
    "avatar_template": "https://avatars.discourse.org/v2/letter/t/977dab/{size}.png",
    "name": "R",
    "moderator": false,
    "admin": false
   },
   {
    "id": -1,
    "username": "system",
    "avatar_template": "/user_avatar/community.monzo.com/system/{size}/1_1.png",
    "name": "system",
    "moderator": true,
    "admin": true
   }
  ],
  "user_summary": {
   "likes_given": 5,
   "likes_received": 0,
   "posts_read_count": 692,
   "days_visited": 20,
   "topic_count": 0,
   "post_count": 0,
   "time_read": "1h",
   "solved_count": 0,
   "topic_ids": [],
   "replies": [],
   "links": [],
   "most_liked_by_users": [],
   "most_liked_users": [
    {
     "id": 3,
     "username": "hugo",
     "avatar_template": "/user_avatar/community.monzo.com/hugo/{size}/10_1.png",
     "count": 1,
     "name": "Hugo Cornejo"
    },
    {
     "id": 36,
     "username": "dom",
     "avatar_template": "/user_avatar/community.monzo.com/dom/{size}/53_1.png",
     "count": 1,
     "name": "dom"
    },
    {
     "id": 239,
     "username": "JamesBell",
     "avatar_template": "/user_avatar/community.monzo.com/jamesbell/{size}/190_1.png",
     "count": 1,
     "name": "james_e_bell"
    },
    {
     "id": 1341,
     "username": "SladdinCJ",
     "avatar_template": "/user_avatar/community.monzo.com/sladdincj/{size}/916_1.png",
     "count": 1,
     "name": "Christopher J. Sladdin"
    },
    {
     "id": 3944,
     "username": "EC_Dave",
     "avatar_template": "https://avatars.discourse.org/v2/letter/e/43a26b/{size}.png",
     "count": 1,
     "name": ""
    }
   ],
   "most_replied_to_users": [],
   "badges": [
    {
     "id": 4633,
     "granted_at": "2016-05-13T22:36:29.692Z",
     "count": 1,
     "badge_id": 1,
     "user_id": 1763,
     "granted_by_id": -1
    },
    {
     "id": 15598,
     "granted_at": "2017-04-18T16:55:19.369Z",
     "count": 1,
     "badge_id": 24,
     "user_id": 1763,
     "granted_by_id": -1
    },
    {
     "id": 5812,
     "granted_at": "2016-06-16T08:23:02.697Z",
     "count": 1,
     "post_id": 8308,
     "post_number": 12,
     "badge_id": 11,
     "user_id": 1763,
     "granted_by_id": -1,
     "topic_id": 3632
    }
   ]
  }
 }
}